{
  "items": [
    {
      "id": "feed_20260621_202127",
      "kind": "event",
      "date": "2026-06-21",
      "created_at": "2026-06-21T11:21:27Z",
      "text": "うんこが落ちました。\n英訳: The poop fell.",
      "tweet": "うんこが落ちました。\n英訳: The poop fell.",
      "place": "",
      "links": [],
      "avatar_image": "image/avatar/normal.png",
      "permalink": "./posts/feed_20260621_202127/index.html",
      "legacy_id": "fixed-event-20260621_202127",
      "image": "image/feed_20260621_202127.png",
      "image_url": "image/feed_20260621_202127.png",
      "avatar_url": "image/avatar/normal.png",
      "image_prompt": "cinematic illustration, based on this short story: うんこが落ちました。 英訳: The poop fell., plain illustration only, no readable text, no letters, no captions, no speech bubbles, no signs, no posters, no labels, no handwriting",
      "image_negative": "photorealistic, low quality, blurry, underexposed, too dark, text, letters, words, captions, speech bubbles, dialogue balloons, signs, posters, labels, handwriting, watermark, logo",
      "image_model": "stabilityai/sdxl-turbo",
      "image_generated_at": "2026-06-21T11:26:03Z"
    },
    {
      "id": "feed_20260621_135400",
      "kind": "event",
      "date": "2026-06-21",
      "created_at": "2026-06-21T04:54:00Z",
      "text": "うんこが好きです。\n英訳: I like poop.",
      "tweet": "うんこが好きです。\n英訳: I like poop.",
      "place": "",
      "links": [],
      "avatar_image": "image/avatar/normal.png",
      "permalink": "./posts/feed_20260621_135400/index.html",
      "legacy_id": "fixed-event-20260621_135400",
      "image": "image/feed_20260621_135400.png",
      "image_url": "image/feed_20260621_135400.png",
      "avatar_url": "image/avatar/normal.png",
      "image_prompt": "cinematic illustration, based on this short story: うんこが好きです。 英訳: I like poop., plain illustration only, no readable text, no letters, no captions, no speech bubbles, no signs, no posters, no labels, no handwriting",
      "image_negative": "photorealistic, low quality, blurry, underexposed, too dark, text, letters, words, captions, speech bubbles, dialogue balloons, signs, posters, labels, handwriting, watermark, logo",
      "image_model": "stabilityai/sdxl-turbo",
      "image_generated_at": "2026-06-21T04:58:23Z"
    },
    {
      "id": "feed_20260621_024035",
      "kind": "event",
      "date": "2026-06-21",
      "created_at": "2026-06-20T17:40:35Z",
      "text": "うんこが臭いです。\n英訳: Smell comes from poop.",
      "tweet": "うんこが臭いです。\n英訳: Smell comes from poop.",
      "place": "",
      "links": [],
      "avatar_image": "image/avatar/normal.png",
      "permalink": "./posts/feed_20260621_024035/index.html",
      "legacy_id": "fixed-event-20260621_024035",
      "image": "image/feed_20260621_024035.png",
      "image_url": "image/feed_20260621_024035.png",
      "avatar_url": "image/avatar/normal.png",
      "image_prompt": "cinematic illustration, based on this short story: うんこが臭いです。 英訳: Smell comes from poop., plain illustration only, no readable text, no letters, no captions, no speech bubbles, no signs, no posters, no labels, no handwriting",
      "image_negative": "photorealistic, low quality, blurry, underexposed, too dark, text, letters, words, captions, speech bubbles, dialogue balloons, signs, posters, labels, handwriting, watermark, logo",
      "image_model": "stabilityai/sdxl-turbo",
      "image_generated_at": "2026-06-20T17:45:05Z"
    },
    {
      "id": "feed_20260620_193747",
      "kind": "event",
      "date": "2026-06-20",
      "created_at": "2026-06-20T10:37:47Z",
      "text": "うんこが道にあり、人々が困った顔をしました。\n英訳: People looked confused as poop was found on the road.",
      "tweet": "うんこが道にあり、人々が困った顔をしました。\n英訳: People looked confused as poop was found on the road.",
      "place": "",
      "links": [],
      "avatar_image": "image/avatar/normal.png",
      "permalink": "./posts/feed_20260620_193747/index.html",
      "legacy_id": "fixed-event-20260620_193747",
      "image": "image/feed_20260620_193747.png",
      "image_url": "image/feed_20260620_193747.png",
      "avatar_url": "image/avatar/normal.png",
      "image_prompt": "cinematic illustration, based on this short story: うんこが道にあり、人々が困った顔をしました。 英訳: People looked confused as poop was found on the road., plain illustration only, no readable text, no letters, no captions, no speech bubbles, no signs, no posters, no labels, no handwriting",
      "image_negative": "photorealistic, low quality, blurry, underexposed, too dark, text, letters, words, captions, speech bubbles, dialogue balloons, signs, posters, labels, handwriting, watermark, logo",
      "image_model": "stabilityai/sdxl-turbo",
      "image_generated_at": "2026-06-20T10:42:36Z"
    },
    {
      "id": "feed_20260620_131205",
      "kind": "event",
      "date": "2026-06-20",
      "created_at": "2026-06-20T04:12:05Z",
      "text": "うんこが好きです。\n英訳: I like poop.",
      "tweet": "うんこが好きです。\n英訳: I like poop.",
      "place": "",
      "links": [],
      "avatar_image": "image/avatar/normal.png",
      "permalink": "./posts/feed_20260620_131205/index.html",
      "legacy_id": "fixed-event-20260620_131205",
      "image": "image/feed_20260620_131205.png",
      "image_url": "image/feed_20260620_131205.png",
      "avatar_url": "image/avatar/normal.png",
      "image_prompt": "cinematic illustration, based on this short story: うんこが好きです。 英訳: I like poop., plain illustration only, no readable text, no letters, no captions, no speech bubbles, no signs, no posters, no labels, no handwriting",
      "image_negative": "photorealistic, low quality, blurry, underexposed, too dark, text, letters, words, captions, speech bubbles, dialogue balloons, signs, posters, labels, handwriting, watermark, logo",
      "image_model": "stabilityai/sdxl-turbo",
      "image_generated_at": "2026-06-20T04:16:28Z"
    },
    {
      "id": "feed_20260620_030437",
      "kind": "event",
      "date": "2026-06-20",
      "created_at": "2026-06-19T18:04:37Z",
      "text": "うんこが好きです。\n英訳: I like poop.",
      "tweet": "うんこが好きです。\n英訳: I like poop.",
      "place": "",
      "links": [],
      "avatar_image": "image/avatar/normal.png",
      "permalink": "./posts/feed_20260620_030437/index.html",
      "legacy_id": "fixed-event-20260620_030437",
      "image": "image/feed_20260620_131205.png",
      "image_url": "image/feed_20260620_131205.png",
      "avatar_url": "image/avatar/normal.png",
      "image_prompt": "cinematic illustration, based on this short story: うんこが好きです。 英訳: I like poop., plain illustration only, no readable text, no letters, no captions, no speech bubbles, no signs, no posters, no labels, no handwriting",
      "image_negative": "photorealistic, low quality, blurry, underexposed, too dark, text, letters, words, captions, speech bubbles, dialogue balloons, signs, posters, labels, handwriting, watermark, logo",
      "image_model": "stabilityai/sdxl-turbo",
      "image_generated_at": "2026-06-20T04:16:28Z"
    },
    {
      "id": "feed_20260619_211428",
      "kind": "event",
      "date": "2026-06-19",
      "created_at": "2026-06-19T12:14:28Z",
      "text": "うんこが綺麗に片付いた。\n英訳: The mess is cleaned up nicely.",
      "tweet": "うんこが綺麗に片付いた。\n英訳: The mess is cleaned up nicely.",
      "place": "",
      "links": [],
      "avatar_image": "image/avatar/normal.png",
      "permalink": "./posts/feed_20260619_211428/index.html",
      "legacy_id": "fixed-event-20260619_211428",
      "image": "image/feed_20260619_211428.png",
      "image_url": "image/feed_20260619_211428.png",
      "avatar_url": "image/avatar/normal.png",
      "image_prompt": "cinematic illustration, based on this short story: うんこが綺麗に片付いた。 英訳: The mess is cleaned up nicely., plain illustration only, no readable text, no letters, no captions, no speech bubbles, no signs, no posters, no labels, no handwriting",
      "image_negative": "photorealistic, low quality, blurry, underexposed, too dark, text, letters, words, captions, speech bubbles, dialogue balloons, signs, posters, labels, handwriting, watermark, logo",
      "image_model": "stabilityai/sdxl-turbo",
      "image_generated_at": "2026-06-19T12:18:56Z"
    },
    {
      "id": "feed_20260619_135817",
      "kind": "event",
      "date": "2026-06-19",
      "created_at": "2026-06-19T04:58:17Z",
      "text": "うんこが好きです。\n英訳: I like poop.",
      "tweet": "うんこが好きです。\n英訳: I like poop.",
      "place": "",
      "links": [],
      "avatar_image": "image/avatar/normal.png",
      "permalink": "./posts/feed_20260619_135817/index.html"
    },
    {
      "id": "feed_20260619_033013",
      "kind": "event",
      "date": "2026-06-19",
      "created_at": "2026-06-18T18:30:13Z",
      "text": "うんこが臭う。\n英訳: Smells comes from the poop.",
      "tweet": "うんこが臭う。\n英訳: Smells comes from the poop.",
      "place": "",
      "links": [],
      "avatar_image": "image/avatar/normal.png",
      "permalink": "./posts/feed_20260619_033013/index.html",
      "legacy_id": "fixed-event-20260619_033013",
      "image": "image/feed_20260619_033013.png",
      "image_url": "image/feed_20260619_033013.png",
      "avatar_url": "image/avatar/normal.png",
      "image_prompt": "cinematic illustration, based on this short story: うんこが臭う。 英訳: Smells comes from the poop., plain illustration only, no readable text, no letters, no captions, no speech bubbles, no signs, no posters, no labels, no handwriting",
      "image_negative": "photorealistic, low quality, blurry, underexposed, too dark, text, letters, words, captions, speech bubbles, dialogue balloons, signs, posters, labels, handwriting, watermark, logo",
      "image_model": "stabilityai/sdxl-turbo",
      "image_generated_at": "2026-06-18T18:34:54Z"
    },
    {
      "id": "feed_20260618_134049",
      "kind": "event",
      "date": "2026-06-18",
      "created_at": "2026-06-18T04:40:49Z",
      "text": "うんこが臭いです。\n英訳: Smells unpleasant.\n亂数シード: 27737080340-515-prepare\nパターン: F",
      "tweet": "うんこが臭いです。\n英訳: Smells unpleasant.\n亂数シード: 27737080340-515-prepare\nパターン: F",
      "place": "",
      "links": [],
      "avatar_image": "image/avatar/normal.png",
      "permalink": "./posts/feed_20260618_134049/index.html",
      "legacy_id": "fixed-event-20260618_134049",
      "image": "image/feed_20260618_134049.png",
      "image_url": "image/feed_20260618_134049.png",
      "avatar_url": "image/avatar/normal.png",
      "image_prompt": "cinematic illustration, based on this short story: うんこが臭いです。 英訳: Smells unpleasant. 亂数シード: 27737080340-515-prepare パターン: F, plain illustration only, no readable text, no letters, no captions, no speech bubbles, no signs, no posters, no labels, no handwriting",
      "image_negative": "photorealistic, low quality, blurry, underexposed, too dark, text, letters, words, captions, speech bubbles, dialogue balloons, signs, posters, labels, handwriting, watermark, logo",
      "image_model": "stabilityai/sdxl-turbo",
      "image_generated_at": "2026-06-18T04:45:12Z"
    },
    {
      "id": "feed_20260618_033030",
      "kind": "event",
      "date": "2026-06-18",
      "created_at": "2026-06-17T18:30:30Z",
      "text": "うんこが落ちる。\n英訳: The poop falls.",
      "tweet": "うんこが落ちる。\n英訳: The poop falls.",
      "place": "",
      "links": [],
      "avatar_image": "image/avatar/normal.png",
      "permalink": "./posts/feed_20260618_033030/index.html",
      "legacy_id": "fixed-event-20260618_033030",
      "image": "image/feed_20260618_033030.png",
      "image_url": "image/feed_20260618_033030.png",
      "avatar_url": "image/avatar/normal.png",
      "image_prompt": "cinematic illustration, based on this short story: うんこが落ちる。 英訳: The poop falls., plain illustration only, no readable text, no letters, no captions, no speech bubbles, no signs, no posters, no labels, no handwriting",
      "image_negative": "photorealistic, low quality, blurry, underexposed, too dark, text, letters, words, captions, speech bubbles, dialogue balloons, signs, posters, labels, handwriting, watermark, logo",
      "image_model": "stabilityai/sdxl-turbo",
      "image_generated_at": "2026-06-17T18:35:02Z"
    },
    {
      "id": "feed_20260617_212246",
      "kind": "event",
      "date": "2026-06-17",
      "created_at": "2026-06-17T12:22:46Z",
      "text": "出力形式に従い、以下の日本語とその英訳を生成します：。\n英訳: 1行目: うんこを捨てるのは嫌いです。\n2行目: I dislike throwing away poop.",
      "tweet": "出力形式に従い、以下の日本語とその英訳を生成します：。\n英訳: 1行目: うんこを捨てるのは嫌いです。\n2行目: I dislike throwing away poop.",
      "place": "",
      "links": [],
      "avatar_image": "image/avatar/normal.png",
      "permalink": "./posts/feed_20260617_212246/index.html",
      "legacy_id": "fixed-event-20260617_212246",
      "image": "image/feed_20260617_212246.png",
      "image_url": "image/feed_20260617_212246.png",
      "avatar_url": "image/avatar/normal.png",
      "image_prompt": "cinematic illustration, based on this short story: 出力形式に従い、以下の日本語とその英訳を生成します：。 英訳: 1行目: うんこを捨てるのは嫌いです。 2行目: I dislike throwing away poop., plain illustration only, no readable text, no letters, no captions, no speech bubbles, no signs, no posters, no labels, no handwriting",
      "image_negative": "photorealistic, low quality, blurry, underexposed, too dark, text, letters, words, captions, speech bubbles, dialogue balloons, signs, posters, labels, handwriting, watermark, logo",
      "image_model": "stabilityai/sdxl-turbo",
      "image_generated_at": "2026-06-17T12:27:25Z"
    },
    {
      "id": "feed_20260617_134637",
      "kind": "event",
      "date": "2026-06-17",
      "created_at": "2026-06-17T04:46:37Z",
      "text": "うんこが好きです。\n英訳: I like poop.",
      "tweet": "うんこが好きです。\n英訳: I like poop.",
      "place": "",
      "links": [],
      "avatar_image": "image/avatar/normal.png",
      "permalink": "./posts/feed_20260617_134637/index.html",
      "legacy_id": "fixed-event-20260617_134637",
      "image": "image/feed_20260617_134637.png",
      "image_url": "image/feed_20260617_134637.png",
      "avatar_url": "image/avatar/normal.png",
      "image_prompt": "cinematic illustration, based on this short story: うんこが好きです。 英訳: I like poop., plain illustration only, no readable text, no letters, no captions, no speech bubbles, no signs, no posters, no labels, no handwriting",
      "image_negative": "photorealistic, low quality, blurry, underexposed, too dark, text, letters, words, captions, speech bubbles, dialogue balloons, signs, posters, labels, handwriting, watermark, logo",
      "image_model": "stabilityai/sdxl-turbo",
      "image_generated_at": "2026-06-17T04:50:50Z"
    },
    {
      "id": "feed_20260617_044312",
      "kind": "event",
      "date": "2026-06-17",
      "created_at": "2026-06-16T19:43:12Z",
      "text": "うんこが落ちました。\n英訳: The poop fell.",
      "tweet": "うんこが落ちました。\n英訳: The poop fell.",
      "place": "",
      "links": [],
      "avatar_image": "image/avatar/normal.png",
      "permalink": "./posts/feed_20260617_044312/index.html",
      "legacy_id": "fixed-event-20260617_044312",
      "image": "image/feed_20260617_044312.png",
      "image_url": "image/feed_20260617_044312.png",
      "avatar_url": "image/avatar/normal.png",
      "image_prompt": "cinematic illustration, based on this short story: うんこが落ちました。 英訳: The poop fell., plain illustration only, no readable text, no letters, no captions, no speech bubbles, no signs, no posters, no labels, no handwriting",
      "image_negative": "photorealistic, low quality, blurry, underexposed, too dark, text, letters, words, captions, speech bubbles, dialogue balloons, signs, posters, labels, handwriting, watermark, logo",
      "image_model": "stabilityai/sdxl-turbo",
      "image_generated_at": "2026-06-16T19:48:07Z"
    },
    {
      "id": "feed_20260616_220055",
      "kind": "event",
      "date": "2026-06-16",
      "created_at": "2026-06-16T13:00:55Z",
      "text": "出力形式に従って作成します。\n英訳: 1行目: うんこが大きすぎたので、犬が噛んでしまった。\n2行目: The poop was too big, so the dog chewed it up.",
      "tweet": "出力形式に従って作成します。\n英訳: 1行目: うんこが大きすぎたので、犬が噛んでしまった。\n2行目: The poop was too big, so the dog chewed it up.",
      "place": "",
      "links": [],
      "avatar_image": "image/avatar/normal.png",
      "permalink": "./posts/feed_20260616_220055/index.html",
      "legacy_id": "fixed-event-20260616_220055",
      "image": "image/feed_20260616_220055.png",
      "image_url": "image/feed_20260616_220055.png",
      "avatar_url": "image/avatar/normal.png",
      "image_prompt": "cinematic illustration, based on this short story: 出力形式に従って作成します。 英訳: 1行目: うんこが大きすぎたので、犬が噛んでしまった。 2行目: The poop was too big, so the dog chewed it up., plain illustration only, no readable text, no letters, no captions, no speech bubbles, no signs, no posters, no labels, no handwriting",
      "image_negative": "photorealistic, low quality, blurry, underexposed, too dark, text, letters, words, captions, speech bubbles, dialogue balloons, signs, posters, labels, handwriting, watermark, logo",
      "image_model": "stabilityai/sdxl-turbo",
      "image_generated_at": "2026-06-16T13:05:29Z"
    },
    {
      "id": "feed_20260616_140229",
      "kind": "event",
      "date": "2026-06-16",
      "created_at": "2026-06-16T05:02:29Z",
      "text": "1行目: うんこが臭いです。\n英訳: 2行目: The poop smells.",
      "tweet": "1行目: うんこが臭いです。\n英訳: 2行目: The poop smells.",
      "place": "",
      "links": [],
      "avatar_image": "image/avatar/normal.png",
      "permalink": "./posts/feed_20260616_140229/index.html",
      "legacy_id": "fixed-event-20260616_140229",
      "image": "image/feed_20260616_140229.png",
      "image_url": "image/feed_20260616_140229.png",
      "avatar_url": "image/avatar/normal.png",
      "image_prompt": "cinematic illustration, based on this short story: 1行目: うんこが臭いです。 英訳: 2行目: The poop smells., plain illustration only, no readable text, no letters, no captions, no speech bubbles, no signs, no posters, no labels, no handwriting",
      "image_negative": "photorealistic, low quality, blurry, underexposed, too dark, text, letters, words, captions, speech bubbles, dialogue balloons, signs, posters, labels, handwriting, watermark, logo",
      "image_model": "stabilityai/sdxl-turbo",
      "image_generated_at": "2026-06-16T05:07:06Z"
    },
    {
      "id": "feed_20260616_045305",
      "kind": "event",
      "date": "2026-06-16",
      "created_at": "2026-06-15T19:53:05Z",
      "text": "うんこが落ちた。\n英訳: The poop fell.",
      "tweet": "うんこが落ちた。\n英訳: The poop fell.",
      "place": "",
      "links": [],
      "avatar_image": "image/avatar/normal.png",
      "permalink": "./posts/feed_20260616_045305/index.html",
      "legacy_id": "fixed-event-20260616_045305",
      "image": "image/feed_20260616_045305.png",
      "image_url": "image/feed_20260616_045305.png",
      "avatar_url": "image/avatar/normal.png",
      "image_prompt": "cinematic illustration, based on this short story: うんこが落ちた。 英訳: The poop fell., plain illustration only, no readable text, no letters, no captions, no speech bubbles, no signs, no posters, no labels, no handwriting",
      "image_negative": "photorealistic, low quality, blurry, underexposed, too dark, text, letters, words, captions, speech bubbles, dialogue balloons, signs, posters, labels, handwriting, watermark, logo",
      "image_model": "stabilityai/sdxl-turbo",
      "image_generated_at": "2026-06-15T19:57:44Z"
    },
    {
      "id": "feed_20260615_233335",
      "kind": "event",
      "date": "2026-06-15",
      "created_at": "2026-06-15T14:33:35Z",
      "text": "うんこが大好きです。\n英訳: I like poop.",
      "tweet": "うんこが大好きです。\n英訳: I like poop.",
      "place": "",
      "links": [],
      "avatar_image": "image/avatar/normal.png",
      "permalink": "./posts/feed_20260615_233335/index.html"
    },
    {
      "id": "feed_20260615_140131",
      "kind": "event",
      "date": "2026-06-15",
      "created_at": "2026-06-15T05:01:31Z",
      "text": "うんこが落ちてきやがった。\n英訳: The poop fell down.",
      "tweet": "うんこが落ちてきやがった。\n英訳: The poop fell down.",
      "place": "",
      "links": [],
      "avatar_image": "image/avatar/normal.png",
      "permalink": "./posts/feed_20260615_140131/index.html",
      "legacy_id": "fixed-event-20260615_140131",
      "image": "image/feed_20260615_140131.png",
      "image_url": "image/feed_20260615_140131.png",
      "avatar_url": "image/avatar/normal.png",
      "image_prompt": "cinematic illustration, based on this short story: うんこが落ちてきやがった。 英訳: The poop fell down., plain illustration only, no readable text, no letters, no captions, no speech bubbles, no signs, no posters, no labels, no handwriting",
      "image_negative": "photorealistic, low quality, blurry, underexposed, too dark, text, letters, words, captions, speech bubbles, dialogue balloons, signs, posters, labels, handwriting, watermark, logo",
      "image_model": "stabilityai/sdxl-turbo",
      "image_generated_at": "2026-06-15T05:05:50Z"
    },
    {
      "id": "feed_20260615_022606",
      "kind": "event",
      "date": "2026-06-15",
      "created_at": "2026-06-14T17:26:06Z",
      "text": "出力形式をご指定いただいていないようですので、適切な形式に修正いたします。\n英訳: 1行目: うんこを片付けてから買い物に行きましょう。\n2行目: Let's go shopping after I put away the poop.",
      "tweet": "出力形式をご指定いただいていないようですので、適切な形式に修正いたします。\n英訳: 1行目: うんこを片付けてから買い物に行きましょう。\n2行目: Let's go shopping after I put away the poop.",
      "place": "",
      "links": [],
      "avatar_image": "image/avatar/normal.png",
      "permalink": "./posts/feed_20260615_022606/index.html",
      "legacy_id": "fixed-event-20260615_022606",
      "image": "image/feed_20260615_022606.png",
      "image_url": "image/feed_20260615_022606.png",
      "avatar_url": "image/avatar/normal.png",
      "image_prompt": "cinematic illustration, based on this short story: 出力形式をご指定いただいていないようですので、適切な形式に修正いたします。 英訳: 1行目: うんこを片付けてから買い物に行きましょう。 2行目: Let's go shopping after I put away the poop., plain illustration only, no readable text, no letters, no captions, no speech bubbles, no signs, no posters, no labels, no handwriting",
      "image_negative": "photorealistic, low quality, blurry, underexposed, too dark, text, letters, words, captions, speech bubbles, dialogue balloons, signs, posters, labels, handwriting, watermark, logo",
      "image_model": "stabilityai/sdxl-turbo",
      "image_generated_at": "2026-06-14T17:30:28Z"
    }
  ],
  "count": 20,
  "page": 4,
  "page_size": 20,
  "total_items": 180,
  "total_pages": 9,
  "next_feed_url": "./feed/page_005.json"
}
