{
  "items": [
    {
      "id": "feed_20260528_130855",
      "kind": "event",
      "date": "2026-05-28",
      "created_at": "2026-05-28T04:08:55Z",
      "text": "うんこが臭い。\n英訳: Smell comes from the poop.",
      "tweet": "うんこが臭い。\n英訳: Smell comes from the poop.",
      "place": "",
      "links": [],
      "avatar_image": "image/avatar/normal.png",
      "permalink": "./posts/feed_20260528_130855/index.html",
      "legacy_id": "fixed-event-20260528_130855",
      "image": "image/feed_20260528_130855.png",
      "image_url": "image/feed_20260528_130855.png",
      "avatar_url": "image/avatar/normal.png",
      "image_prompt": "cinematic illustration, based on this short story: うんこが臭い。 英訳: Smell comes from the poop., plain illustration only, no readable text, no letters, no captions, no speech bubbles, no signs, no posters, no labels, no handwriting",
      "image_negative": "photorealistic, text, watermark, logo, low quality, blurry, underexposed, too dark, text, letters, words, captions, speech bubbles, dialogue balloons, signs, posters, labels, handwriting, watermark, logo",
      "image_model": "stabilityai/sdxl-turbo",
      "image_generated_at": "2026-05-28T04:13:16Z"
    },
    {
      "id": "feed_20260528_033152",
      "kind": "event",
      "date": "2026-05-28",
      "created_at": "2026-05-27T18:31:52Z",
      "text": "うんこが臭いね。\n英訳: Smells bad.\n出力形式：\n1行目: うんこが臭いね。\n2行目: Smells bad.",
      "tweet": "うんこが臭いね。\n英訳: Smells bad.\n出力形式：\n1行目: うんこが臭いね。\n2行目: Smells bad.",
      "place": "",
      "links": [],
      "avatar_image": "image/avatar/normal.png",
      "permalink": "./posts/feed_20260528_033152/index.html",
      "legacy_id": "fixed-event-20260528_033152",
      "image": "image/feed_20260528_033152.png",
      "image_url": "image/feed_20260528_033152.png",
      "avatar_url": "image/avatar/normal.png",
      "image_prompt": "cinematic illustration, based on this short story: うんこが臭いね。 英訳: Smells bad. 出力形式： 1行目: うんこが臭いね。 2行目: Smells bad., plain illustration only, no readable text, no letters, no captions, no speech bubbles, no signs, no posters, no labels, no handwriting",
      "image_negative": "photorealistic, text, watermark, logo, low quality, blurry, underexposed, too dark, text, letters, words, captions, speech bubbles, dialogue balloons, signs, posters, labels, handwriting, watermark, logo",
      "image_model": "stabilityai/sdxl-turbo",
      "image_generated_at": "2026-05-27T18:36:32Z"
    },
    {
      "id": "feed_20260527_131955",
      "kind": "event",
      "date": "2026-05-27",
      "created_at": "2026-05-27T04:19:55Z",
      "text": "うんこが臭いです。\n英訳: F\nThe poop smells.",
      "tweet": "うんこが臭いです。\n英訳: F\nThe poop smells.",
      "place": "",
      "links": [],
      "avatar_image": "image/avatar/normal.png",
      "permalink": "./posts/feed_20260527_131955/index.html",
      "legacy_id": "fixed-event-20260527_131955",
      "image": "image/feed_20260527_131955.png",
      "image_url": "image/feed_20260527_131955.png",
      "avatar_url": "image/avatar/normal.png",
      "image_prompt": "cinematic illustration, based on this short story: うんこが臭いです。 英訳: F The poop smells., plain illustration only, no readable text, no letters, no captions, no speech bubbles, no signs, no posters, no labels, no handwriting",
      "image_negative": "photorealistic, text, watermark, logo, low quality, blurry, underexposed, too dark, text, letters, words, captions, speech bubbles, dialogue balloons, signs, posters, labels, handwriting, watermark, logo",
      "image_model": "stabilityai/sdxl-turbo",
      "image_generated_at": "2026-05-27T04:24:55Z"
    },
    {
      "id": "feed_20260527_033337",
      "kind": "event",
      "date": "2026-05-27",
      "created_at": "2026-05-26T18:33:37Z",
      "text": "出力形式に従います。\n英訳: 1行目: うんこが臭いです。\n2行目: The poop smells.",
      "tweet": "出力形式に従います。\n英訳: 1行目: うんこが臭いです。\n2行目: The poop smells.",
      "place": "",
      "links": [],
      "avatar_image": "image/avatar/normal.png",
      "permalink": "./posts/feed_20260527_033337/index.html",
      "legacy_id": "fixed-event-20260527_033337",
      "image": "image/feed_20260527_033337.png",
      "image_url": "image/feed_20260527_033337.png",
      "avatar_url": "image/avatar/normal.png",
      "image_prompt": "cinematic illustration, based on this short story: 出力形式に従います。 英訳: 1行目: うんこが臭いです。 2行目: The poop smells., plain illustration only, no readable text, no letters, no captions, no speech bubbles, no signs, no posters, no labels, no handwriting",
      "image_negative": "photorealistic, text, watermark, logo, low quality, blurry, underexposed, too dark, text, letters, words, captions, speech bubbles, dialogue balloons, signs, posters, labels, handwriting, watermark, logo",
      "image_model": "stabilityai/sdxl-turbo",
      "image_generated_at": "2026-05-26T18:37:49Z"
    },
    {
      "id": "feed_20260526_130603",
      "kind": "event",
      "date": "2026-05-26",
      "created_at": "2026-05-26T04:06:03Z",
      "text": "うんこが好きです。\n英訳: I like poop.",
      "tweet": "うんこが好きです。\n英訳: I like poop.",
      "place": "",
      "links": [],
      "avatar_image": "image/avatar/normal.png",
      "permalink": "./posts/feed_20260526_130603/index.html",
      "legacy_id": "fixed-event-20260526_130603",
      "image": "image/feed_20260526_130603.png",
      "image_url": "image/feed_20260526_130603.png",
      "avatar_url": "image/avatar/normal.png",
      "image_prompt": "cinematic illustration, based on this short story: うんこが好きです。 英訳: I like poop., plain illustration only, no readable text, no letters, no captions, no speech bubbles, no signs, no posters, no labels, no handwriting",
      "image_negative": "photorealistic, text, watermark, logo, low quality, blurry, underexposed, too dark, text, letters, words, captions, speech bubbles, dialogue balloons, signs, posters, labels, handwriting, watermark, logo",
      "image_model": "stabilityai/sdxl-turbo",
      "image_generated_at": "2026-05-26T04:11:01Z"
    },
    {
      "id": "feed_20260526_025001",
      "kind": "event",
      "date": "2026-05-26",
      "created_at": "2026-05-25T17:50:01Z",
      "text": "うんこがでた。\n英訳: There was feces.",
      "tweet": "うんこがでた。\n英訳: There was feces.",
      "place": "",
      "links": [],
      "avatar_image": "image/avatar/normal.png",
      "permalink": "./posts/feed_20260526_025001/index.html",
      "legacy_id": "fixed-event-20260526_025001",
      "image": "image/feed_20260526_025001.png",
      "image_url": "image/feed_20260526_025001.png",
      "avatar_url": "image/avatar/normal.png",
      "image_prompt": "cinematic illustration, based on this short story: うんこがでた。 英訳: There was feces., plain illustration only, no readable text, no letters, no captions, no speech bubbles, no signs, no posters, no labels, no handwriting",
      "image_negative": "photorealistic, text, watermark, logo, low quality, blurry, underexposed, too dark, text, letters, words, captions, speech bubbles, dialogue balloons, signs, posters, labels, handwriting, watermark, logo",
      "image_model": "stabilityai/sdxl-turbo",
      "image_generated_at": "2026-05-25T17:54:31Z"
    },
    {
      "id": "feed_20260525_205821",
      "kind": "event",
      "date": "2026-05-25",
      "created_at": "2026-05-25T11:58:21Z",
      "text": "うんこが臭い。\n英訳: Smell comes from the poop.",
      "tweet": "うんこが臭い。\n英訳: Smell comes from the poop.",
      "place": "",
      "links": [],
      "avatar_image": "image/avatar/normal.png",
      "permalink": "./posts/feed_20260525_205821/index.html"
    },
    {
      "id": "feed_20260525_132034",
      "kind": "event",
      "date": "2026-05-25",
      "created_at": "2026-05-25T04:20:34Z",
      "text": "うんこが落ちた。\n英訳: The poop fell.",
      "tweet": "うんこが落ちた。\n英訳: The poop fell.",
      "place": "",
      "links": [],
      "avatar_image": "image/avatar/normal.png",
      "permalink": "./posts/feed_20260525_132034/index.html"
    },
    {
      "id": "feed_20260525_021058",
      "kind": "event",
      "date": "2026-05-25",
      "created_at": "2026-05-24T17:10:58Z",
      "text": "うんこが好きです。\n英訳: I like poop.",
      "tweet": "うんこが好きです。\n英訳: I like poop.",
      "place": "",
      "links": [],
      "avatar_image": "image/avatar/normal.png",
      "permalink": "./posts/feed_20260525_021058/index.html"
    },
    {
      "id": "feed_20260524_190157",
      "kind": "event",
      "date": "2026-05-24",
      "created_at": "2026-05-24T10:01:57Z",
      "text": "うんこが落ちる。\n英訳: B\nDog poop falls.",
      "tweet": "うんこが落ちる。\n英訳: B\nDog poop falls.",
      "place": "",
      "links": [],
      "avatar_image": "image/avatar/normal.png",
      "permalink": "./posts/feed_20260524_190157/index.html"
    },
    {
      "id": "feed_20260524_130906",
      "kind": "event",
      "date": "2026-05-24",
      "created_at": "2026-05-24T04:09:06Z",
      "text": "うんこが臭いです。\n英訳: Smells bad.",
      "tweet": "うんこが臭いです。\n英訳: Smells bad.",
      "place": "",
      "links": [],
      "avatar_image": "image/avatar/normal.png",
      "permalink": "./posts/feed_20260524_130906/index.html"
    },
    {
      "id": "feed_20260524_020919",
      "kind": "event",
      "date": "2026-05-24",
      "created_at": "2026-05-23T17:09:19Z",
      "text": "うんこが好きです。\n英訳: I like poop.",
      "tweet": "うんこが好きです。\n英訳: I like poop.",
      "place": "",
      "links": [],
      "avatar_image": "image/avatar/normal.png",
      "permalink": "./posts/feed_20260524_020919/index.html"
    },
    {
      "id": "feed_20260523_190021",
      "kind": "event",
      "date": "2026-05-23",
      "created_at": "2026-05-23T10:00:21Z",
      "text": "うんこが好きです。\n英訳: I like poop.",
      "tweet": "うんこが好きです。\n英訳: I like poop.",
      "place": "",
      "links": [],
      "avatar_image": "image/avatar/normal.png",
      "permalink": "./posts/feed_20260523_190021/index.html"
    },
    {
      "id": "feed_20260523_124941",
      "kind": "event",
      "date": "2026-05-23",
      "created_at": "2026-05-23T03:49:41Z",
      "text": "うんこが黒いです。\n英訳: The poop is black.",
      "tweet": "うんこが黒いです。\n英訳: The poop is black.",
      "place": "",
      "links": [],
      "avatar_image": "image/avatar/normal.png",
      "permalink": "./posts/feed_20260523_124941/index.html"
    },
    {
      "id": "feed_20260523_025913",
      "kind": "event",
      "date": "2026-05-23",
      "created_at": "2026-05-22T17:59:13Z",
      "text": "うんこが Stadiumに落ちた。\n英訳: A poop fell on the stadium.",
      "tweet": "うんこが Stadiumに落ちた。\n英訳: A poop fell on the stadium.",
      "place": "",
      "links": [],
      "avatar_image": "image/avatar/normal.png",
      "permalink": "./posts/feed_20260523_025913/index.html"
    },
    {
      "id": "feed_20260522_195725",
      "kind": "event",
      "date": "2026-05-22",
      "created_at": "2026-05-22T10:57:25Z",
      "text": "出力形式に従います：。\n英訳: 1行目: うんこが大好きです。\n2行目: I love poop.",
      "tweet": "出力形式に従います：。\n英訳: 1行目: うんこが大好きです。\n2行目: I love poop.",
      "place": "",
      "links": [],
      "avatar_image": "image/avatar/normal.png",
      "permalink": "./posts/feed_20260522_195725/index.html"
    },
    {
      "id": "feed_20260522_131038",
      "kind": "event",
      "date": "2026-05-22",
      "created_at": "2026-05-22T04:10:38Z",
      "text": "1行目: うんこが汚いです。\n英訳: 2行目: The poop is dirty.",
      "tweet": "1行目: うんこが汚いです。\n英訳: 2行目: The poop is dirty.",
      "place": "",
      "links": [],
      "avatar_image": "image/avatar/normal.png",
      "permalink": "./posts/feed_20260522_131038/index.html"
    },
    {
      "id": "feed_20260522_030553",
      "kind": "event",
      "date": "2026-05-22",
      "created_at": "2026-05-21T18:05:53Z",
      "text": "うんこが臭い。\n英訳: The poop smells.",
      "tweet": "うんこが臭い。\n英訳: The poop smells.",
      "place": "",
      "links": [],
      "avatar_image": "image/avatar/normal.png",
      "permalink": "./posts/feed_20260522_030553/index.html"
    },
    {
      "id": "feed_20260521_203432",
      "kind": "event",
      "date": "2026-05-21",
      "created_at": "2026-05-21T11:34:32Z",
      "text": "出力形式に従って答えます：。\n英訳: うんこを食べたら大変だよ。\nThe translation of the given sentence is as follows:\nEating poop is bad.",
      "tweet": "出力形式に従って答えます：。\n英訳: うんこを食べたら大変だよ。\nThe translation of the given sentence is as follows:\nEating poop is bad.",
      "place": "",
      "links": [],
      "avatar_image": "image/avatar/normal.png",
      "permalink": "./posts/feed_20260521_203432/index.html"
    },
    {
      "id": "feed_20260521_134856",
      "kind": "event",
      "date": "2026-05-21",
      "created_at": "2026-05-21T04:48:56Z",
      "text": "うんこがでた。\n英訳: The poop came out.",
      "tweet": "うんこがでた。\n英訳: The poop came out.",
      "place": "",
      "links": [],
      "avatar_image": "image/avatar/normal.png",
      "permalink": "./posts/feed_20260521_134856/index.html",
      "legacy_id": "fixed-event-20260521_134856",
      "image": "image/feed_20260521_134856.png",
      "image_url": "image/feed_20260521_134856.png",
      "avatar_url": "image/avatar/normal.png",
      "image_prompt": "cinematic illustration, based on this short story: うんこがでた。 英訳: The poop came out., plain illustration only, no readable text, no letters, no captions, no speech bubbles, no signs, no posters, no labels, no handwriting",
      "image_negative": "photorealistic, text, watermark, logo, low quality, blurry, underexposed, too dark, text, letters, words, captions, speech bubbles, dialogue balloons, signs, posters, labels, handwriting, watermark, logo",
      "image_model": "stabilityai/sdxl-turbo",
      "image_generated_at": "2026-05-21T04:53:29Z"
    }
  ],
  "count": 20,
  "page": 3,
  "page_size": 20,
  "total_items": 83,
  "total_pages": 5,
  "next_feed_url": "./feed/page_004.json"
}
