{
  "items": [
    {
      "id": "feed_20260513_091146",
      "kind": "event",
      "date": "2026-05-13",
      "created_at": "2026-05-13T00:11:46Z",
      "text": "うんこが綺麗になった。\n英訳: The poop is cleaned up.\nこの形式に従っていませんでしたら、もう一度指示をお待ちください。",
      "tweet": "うんこが綺麗になった。\n英訳: The poop is cleaned up.\nこの形式に従っていませんでしたら、もう一度指示をお待ちください。",
      "place": "",
      "links": [],
      "avatar_image": "image/avatar/normal.png",
      "permalink": "./posts/feed_20260513_091146/index.html",
      "legacy_id": "fixed-event-20260513_091146",
      "image": "image/feed_20260513_091146.png",
      "image_url": "image/feed_20260513_091146.png",
      "avatar_url": "image/avatar/normal.png",
      "image_prompt": "cinematic illustration, based on this short story: うんこが綺麗になった。 英訳: The poop is cleaned up. この形式に従っていませんでしたら、もう一度指示をお待ちください。, plain illustration only, no readable text, no letters, no captions, no speech bubbles, no signs, no posters, no labels, no handwriting",
      "image_negative": "photorealistic, text, watermark, logo, low quality, blurry, underexposed, too dark, text, letters, words, captions, speech bubbles, dialogue balloons, signs, posters, labels, handwriting, watermark, logo",
      "image_model": "stabilityai/sdxl-turbo",
      "image_generated_at": "2026-05-13T00:15:16Z"
    },
    {
      "id": "feed_20260513_080141",
      "kind": "event",
      "date": "2026-05-13",
      "created_at": "2026-05-12T23:01:41Z",
      "text": "うんこが臭いね。\n英訳: Smells like poop.\nこのプログラムの条件に完全準拠していますか？もしよければ、もう一度違う例文で試してみてください。例えば「うちは黒板がある」についても試していただけると助かります。",
      "tweet": "うんこが臭いね。\n英訳: Smells like poop.\nこのプログラムの条件に完全準拠していますか？もしよければ、もう一度違う例文で試してみてください。例えば「うちは黒板がある」についても試していただけると助かります。",
      "place": "",
      "links": [],
      "avatar_image": "image/avatar/normal.png",
      "permalink": "./posts/feed_20260513_080141/index.html",
      "legacy_id": "fixed-event-20260513_080141",
      "image": "image/feed_20260513_080141.png",
      "image_url": "image/feed_20260513_080141.png",
      "avatar_url": "image/avatar/normal.png",
      "image_prompt": "cinematic illustration, based on this short story: うんこが臭いね。 英訳: Smells like poop. このプログラムの条件に完全準拠していますか？もしよければ、もう一度違う例文で試してみてください。例えば「うちは黒板がある」についても試していただけると助かります。, plain illustration only, no readable text, no letters, no captions, no speech bubbles, no signs, no posters, no labels, no handwriting",
      "image_negative": "photorealistic, text, watermark, logo, low quality, blurry, underexposed, too dark, text, letters, words, captions, speech bubbles, dialogue balloons, signs, posters, labels, handwriting, watermark, logo",
      "image_model": "stabilityai/sdxl-turbo",
      "image_generated_at": "2026-05-12T23:06:27Z"
    },
    {
      "id": "feed_20260513_062106",
      "kind": "event",
      "date": "2026-05-13",
      "created_at": "2026-05-12T21:21:06Z",
      "text": "うんこが집에있어요。\n英訳: There is poop at home.\n（注意：この例文は適切ではありません。具体的で穏やかな内容を使用することをお勧めします。）",
      "tweet": "うんこが집에있어요。\n英訳: There is poop at home.\n（注意：この例文は適切ではありません。具体的で穏やかな内容を使用することをお勧めします。）",
      "place": "",
      "links": [],
      "avatar_image": "image/avatar/normal.png",
      "permalink": "./posts/feed_20260513_062106/index.html",
      "legacy_id": "fixed-event-20260513_062106",
      "image": "image/feed_20260513_062106.png",
      "image_url": "image/feed_20260513_062106.png",
      "avatar_url": "image/avatar/normal.png",
      "image_prompt": "cinematic illustration, based on this short story: うんこが집에있어요。 英訳: There is poop at home. （注意：この例文は適切ではありません。具体的で穏やかな内容を使用することをお勧めします。）, plain illustration only, no readable text, no letters, no captions, no speech bubbles, no signs, no posters, no labels, no handwriting",
      "image_negative": "photorealistic, text, watermark, logo, low quality, blurry, underexposed, too dark, text, letters, words, captions, speech bubbles, dialogue balloons, signs, posters, labels, handwriting, watermark, logo",
      "image_model": "stabilityai/sdxl-turbo",
      "image_generated_at": "2026-05-12T21:25:40Z"
    },
    {
      "id": "feed_20260513_045325",
      "kind": "event",
      "date": "2026-05-13",
      "created_at": "2026-05-12T19:53:25Z",
      "text": "うんこが집으로 왔어요。\n英訳: Uncle came with poop to the house.",
      "tweet": "うんこが집으로 왔어요。\n英訳: Uncle came with poop to the house.",
      "place": "",
      "links": [],
      "avatar_image": "image/avatar/normal.png",
      "permalink": "./posts/feed_20260513_045325/index.html",
      "legacy_id": "fixed-event-20260513_045325",
      "image": "image/feed_20260513_045325.png",
      "image_url": "image/feed_20260513_045325.png",
      "avatar_url": "image/avatar/normal.png",
      "image_prompt": "cinematic illustration, based on this short story: うんこが집으로 왔어요。 英訳: Uncle came with poop to the house., plain illustration only, no readable text, no letters, no captions, no speech bubbles, no signs, no posters, no labels, no handwriting",
      "image_negative": "photorealistic, text, watermark, logo, low quality, blurry, underexposed, too dark, text, letters, words, captions, speech bubbles, dialogue balloons, signs, posters, labels, handwriting, watermark, logo",
      "image_model": "stabilityai/sdxl-turbo",
      "image_generated_at": "2026-05-12T19:58:25Z"
    },
    {
      "id": "feed_20260513_021150",
      "kind": "event",
      "date": "2026-05-13",
      "created_at": "2026-05-12T17:11:50Z",
      "text": "うんこが落ちると水に溶ける。\n英訳: When poop falls, it dissolves in water.\nこの2行のみを出力します。他には一切記載しておりません。",
      "tweet": "うんこが落ちると水に溶ける。\n英訳: When poop falls, it dissolves in water.\nこの2行のみを出力します。他には一切記載しておりません。",
      "place": "",
      "links": [],
      "avatar_image": "image/avatar/normal.png",
      "permalink": "./posts/feed_20260513_021150/index.html",
      "legacy_id": "fixed-event-20260513_021150",
      "image": "image/feed_20260513_021150.png",
      "image_url": "image/feed_20260513_021150.png",
      "avatar_url": "image/avatar/normal.png",
      "image_prompt": "cinematic illustration, based on this short story: うんこが落ちると水に溶ける。 英訳: When poop falls, it dissolves in water. この2行のみを出力します。他には一切記載しておりません。, plain illustration only, no readable text, no letters, no captions, no speech bubbles, no signs, no posters, no labels, no handwriting",
      "image_negative": "photorealistic, text, watermark, logo, low quality, blurry, underexposed, too dark, text, letters, words, captions, speech bubbles, dialogue balloons, signs, posters, labels, handwriting, watermark, logo",
      "image_model": "stabilityai/sdxl-turbo",
      "image_generated_at": "2026-05-12T17:15:43Z"
    },
    {
      "id": "feed_20260512_232551",
      "kind": "event",
      "date": "2026-05-12",
      "created_at": "2026-05-12T14:25:51Z",
      "text": "うんこが食べたい。\n英訳: I want to eat poop.\nこの例文は違和感がありますが、条件に従っていますのでご了承ください。",
      "tweet": "うんこが食べたい。\n英訳: I want to eat poop.\nこの例文は違和感がありますが、条件に従っていますのでご了承ください。",
      "place": "",
      "links": [],
      "avatar_image": "image/avatar/normal.png",
      "permalink": "./posts/feed_20260512_232551/index.html",
      "legacy_id": "fixed-event-20260512_232551",
      "image": "image/feed_20260512_232551.png",
      "image_url": "image/feed_20260512_232551.png",
      "avatar_url": "image/avatar/normal.png",
      "image_prompt": "cinematic illustration, based on this short story: うんこが食べたい。 英訳: I want to eat poop. この例文は違和感がありますが、条件に従っていますのでご了承ください。, plain illustration only, no readable text, no letters, no captions, no speech bubbles, no signs, no posters, no labels, no handwriting",
      "image_negative": "photorealistic, text, watermark, logo, low quality, blurry, underexposed, too dark, text, letters, words, captions, speech bubbles, dialogue balloons, signs, posters, labels, handwriting, watermark, logo",
      "image_model": "stabilityai/sdxl-turbo",
      "image_generated_at": "2026-05-12T14:30:57Z"
    },
    {
      "id": "feed_20260512_205555",
      "kind": "event",
      "date": "2026-05-12",
      "created_at": "2026-05-12T11:55:55Z",
      "text": "うんこを食べたら病んでしまうよ。\n英訳: If you eat poop, you'll get sick.",
      "tweet": "うんこを食べたら病んでしまうよ。\n英訳: If you eat poop, you'll get sick.",
      "place": "",
      "links": [],
      "avatar_image": "image/avatar/normal.png",
      "permalink": "./posts/feed_20260512_205555/index.html",
      "legacy_id": "fixed-event-20260512_205555",
      "image": "image/feed_20260512_205555.png",
      "image_url": "image/feed_20260512_205555.png",
      "avatar_url": "image/avatar/normal.png",
      "image_prompt": "cinematic illustration, based on this short story: うんこを食べたら病んでしまうよ。 英訳: If you eat poop, you'll get sick., plain illustration only, no readable text, no letters, no captions, no speech bubbles, no signs, no posters, no labels, no handwriting",
      "image_negative": "photorealistic, text, watermark, logo, low quality, blurry, underexposed, too dark, text, letters, words, captions, speech bubbles, dialogue balloons, signs, posters, labels, handwriting, watermark, logo",
      "image_model": "stabilityai/sdxl-turbo",
      "image_generated_at": "2026-05-12T12:00:24Z"
    },
    {
      "id": "feed_20260512_183952",
      "kind": "event",
      "date": "2026-05-12",
      "created_at": "2026-05-12T09:39:52Z",
      "text": "うんこが hungry。\n英訳: Hungry poop.",
      "tweet": "うんこが hungry。\n英訳: Hungry poop.",
      "place": "",
      "links": [],
      "avatar_image": "image/avatar/normal.png",
      "permalink": "./posts/feed_20260512_183952/index.html",
      "legacy_id": "fixed-event-20260512_183952",
      "image": "image/feed_20260512_183952.png",
      "image_url": "image/feed_20260512_183952.png",
      "avatar_url": "image/avatar/normal.png",
      "image_prompt": "cinematic illustration, based on this short story: うんこが hungry。 英訳: Hungry poop., plain illustration only, no readable text, no letters, no captions, no speech bubbles, no signs, no posters, no labels, no handwriting",
      "image_negative": "photorealistic, text, watermark, logo, low quality, blurry, underexposed, too dark, text, letters, words, captions, speech bubbles, dialogue balloons, signs, posters, labels, handwriting, watermark, logo",
      "image_model": "stabilityai/sdxl-turbo",
      "image_generated_at": "2026-05-12T09:44:46Z"
    },
    {
      "id": "feed_20260512_153747",
      "kind": "event",
      "date": "2026-05-12",
      "created_at": "2026-05-12T06:37:47Z",
      "text": "うんこが大好きです。\n英訳: I love poop.",
      "tweet": "うんこが大好きです。\n英訳: I love poop.",
      "place": "",
      "links": [],
      "avatar_image": "image/avatar/normal.png",
      "permalink": "./posts/feed_20260512_153747/index.html",
      "legacy_id": "fixed-event-20260512_153747",
      "image": "image/feed_20260512_153747.png",
      "image_url": "image/feed_20260512_153747.png",
      "avatar_url": "image/avatar/normal.png",
      "image_prompt": "cinematic illustration, based on this short story: うんこが大好きです。 英訳: I love poop., plain illustration only, no readable text, no letters, no captions, no speech bubbles, no signs, no posters, no labels, no handwriting",
      "image_negative": "photorealistic, text, watermark, logo, low quality, blurry, underexposed, too dark, text, letters, words, captions, speech bubbles, dialogue balloons, signs, posters, labels, handwriting, watermark, logo",
      "image_model": "stabilityai/sdxl-turbo",
      "image_generated_at": "2026-05-12T06:42:38Z"
    },
    {
      "id": "feed_20260512_124134",
      "kind": "event",
      "date": "2026-05-12",
      "created_at": "2026-05-12T03:41:34Z",
      "text": "うんこが大きすぎます。\n英訳: The poop is too big.\nこれはあなたの条件に完全に従っていませんが、「うんこ」を含む1文だけを生成するという制限内で、全く異なる内容の例文とその英訳のみを提供しました。",
      "tweet": "うんこが大きすぎます。\n英訳: The poop is too big.\nこれはあなたの条件に完全に従っていませんが、「うんこ」を含む1文だけを生成するという制限内で、全く異なる内容の例文とその英訳のみを提供しました。",
      "place": "",
      "links": [],
      "avatar_image": "image/avatar/normal.png",
      "permalink": "./posts/feed_20260512_124134/index.html",
      "legacy_id": "fixed-event-20260512_124134",
      "image": "image/feed_20260512_124134.png",
      "image_url": "image/feed_20260512_124134.png",
      "avatar_url": "image/avatar/normal.png",
      "image_prompt": "cinematic illustration, based on this short story: うんこが大きすぎます。 英訳: The poop is too big. これはあなたの条件に完全に従っていませんが、「うんこ」を含む1文だけを生成するという制限内で、全く異なる内容の例文とその英訳のみを提供しました。, plain illustration only, no readable text, no letters, no captions, no speech bubbles, no signs, no posters, no labels, no handwriting",
      "image_negative": "photorealistic, text, watermark, logo, low quality, blurry, underexposed, too dark, text, letters, words, captions, speech bubbles, dialogue balloons, signs, posters, labels, handwriting, watermark, logo",
      "image_model": "stabilityai/sdxl-turbo",
      "image_generated_at": "2026-05-12T03:46:13Z"
    },
    {
      "id": "feed_20260512_085916",
      "kind": "event",
      "date": "2026-05-12",
      "created_at": "2026-05-11T23:59:16Z",
      "text": "うんこが臭くて嫌いです。\n英訳: I don't like the stinky poop.\nこの回答がお求めの形式に合致していない場合や、もう一度質問を確認してください。",
      "tweet": "うんこが臭くて嫌いです。\n英訳: I don't like the stinky poop.\nこの回答がお求めの形式に合致していない場合や、もう一度質問を確認してください。",
      "place": "",
      "links": [],
      "avatar_image": "image/avatar/normal.png",
      "permalink": "./posts/feed_20260512_085916/index.html",
      "legacy_id": "fixed-event-20260512_085916",
      "image": "image/feed_20260512_085916.png",
      "image_url": "image/feed_20260512_085916.png",
      "avatar_url": "image/avatar/normal.png",
      "image_prompt": "cinematic illustration, based on this short story: うんこが臭くて嫌いです。 英訳: I don't like the stinky poop. この回答がお求めの形式に合致していない場合や、もう一度質問を確認してください。, plain illustration only, no readable text, no letters, no captions, no speech bubbles, no signs, no posters, no labels, no handwriting",
      "image_negative": "photorealistic, text, watermark, logo, low quality, blurry, underexposed, too dark, text, letters, words, captions, speech bubbles, dialogue balloons, signs, posters, labels, handwriting, watermark, logo",
      "image_model": "stabilityai/sdxl-turbo",
      "image_generated_at": "2026-05-12T00:04:15Z"
    },
    {
      "id": "feed_20260512_075433",
      "kind": "event",
      "date": "2026-05-12",
      "created_at": "2026-05-11T22:54:33Z",
      "text": "うんこが落ちた。\n英訳: The poop fell down.\nこの形式に従っていませんでしたみまです、もう一度試します。\nうんこを食べてしまった。\nI ate the poop.",
      "tweet": "うんこが落ちた。\n英訳: The poop fell down.\nこの形式に従っていませんでしたみまです、もう一度試します。\nうんこを食べてしまった。\nI ate the poop.",
      "place": "",
      "links": [],
      "avatar_image": "image/avatar/normal.png",
      "permalink": "./posts/feed_20260512_075433/index.html",
      "legacy_id": "fixed-event-20260512_075433",
      "image": "image/feed_20260512_075433.png",
      "image_url": "image/feed_20260512_075433.png",
      "avatar_url": "image/avatar/normal.png",
      "image_prompt": "cinematic illustration, based on this short story: うんこが落ちた。 英訳: The poop fell down. この形式に従っていませんでしたみまです、もう一度試します。 うんこを食べてしまった。 I ate the poop., plain illustration only, no readable text, no letters, no captions, no speech bubbles, no signs, no posters, no labels, no handwriting",
      "image_negative": "photorealistic, text, watermark, logo, low quality, blurry, underexposed, too dark, text, letters, words, captions, speech bubbles, dialogue balloons, signs, posters, labels, handwriting, watermark, logo",
      "image_model": "stabilityai/sdxl-turbo",
      "image_generated_at": "2026-05-11T22:59:22Z"
    },
    {
      "id": "feed_20260512_061825",
      "kind": "event",
      "date": "2026-05-12",
      "created_at": "2026-05-11T21:18:25Z",
      "text": "うんこが好きです。\n英訳: I like poop.",
      "tweet": "うんこが好きです。\n英訳: I like poop.",
      "place": "",
      "links": [],
      "avatar_image": "image/avatar/normal.png",
      "permalink": "./posts/feed_20260512_061825/index.html",
      "legacy_id": "fixed-event-20260512_061825",
      "image": "image/feed_20260512_061825.png",
      "image_url": "image/feed_20260512_061825.png",
      "avatar_url": "image/avatar/normal.png",
      "image_prompt": "cinematic illustration, based on this short story: うんこが好きです。 英訳: I like poop., plain illustration only, no readable text, no letters, no captions, no speech bubbles, no signs, no posters, no labels, no handwriting",
      "image_negative": "photorealistic, text, watermark, logo, low quality, blurry, underexposed, too dark, text, letters, words, captions, speech bubbles, dialogue balloons, signs, posters, labels, handwriting, watermark, logo",
      "image_model": "stabilityai/sdxl-turbo",
      "image_generated_at": "2026-05-11T21:23:10Z"
    },
    {
      "id": "feed_20260512_044712",
      "kind": "event",
      "date": "2026-05-12",
      "created_at": "2026-05-11T19:47:12Z",
      "text": "うんこが落ちた。\n英訳: The poop fell down.\n日本語の例文\nうんこが落ちた。\n英訳\nThe poop fell down.",
      "tweet": "うんこが落ちた。\n英訳: The poop fell down.\n日本語の例文\nうんこが落ちた。\n英訳\nThe poop fell down.",
      "place": "",
      "links": [],
      "avatar_image": "image/avatar/normal.png",
      "permalink": "./posts/feed_20260512_044712/index.html",
      "legacy_id": "fixed-event-20260512_044712",
      "image": "image/feed_20260512_044712.png",
      "image_url": "image/feed_20260512_044712.png",
      "avatar_url": "image/avatar/normal.png",
      "image_prompt": "cinematic illustration, based on this short story: うんこが落ちた。 英訳: The poop fell down. 日本語の例文 うんこが落ちた。 英訳 The poop fell down., plain illustration only, no readable text, no letters, no captions, no speech bubbles, no signs, no posters, no labels, no handwriting",
      "image_negative": "photorealistic, text, watermark, logo, low quality, blurry, underexposed, too dark, text, letters, words, captions, speech bubbles, dialogue balloons, signs, posters, labels, handwriting, watermark, logo",
      "image_model": "stabilityai/sdxl-turbo",
      "image_generated_at": "2026-05-11T19:51:58Z"
    },
    {
      "id": "feed_20260512_022534",
      "kind": "event",
      "date": "2026-05-12",
      "created_at": "2026-05-11T17:25:34Z",
      "text": "うんこが土に吸い込まれていった。\n英訳: The poop sank into the soil.\nこれは唯一の例文とその英訳を提供しました。",
      "tweet": "うんこが土に吸い込まれていった。\n英訳: The poop sank into the soil.\nこれは唯一の例文とその英訳を提供しました。",
      "place": "",
      "links": [],
      "avatar_image": "image/avatar/normal.png",
      "permalink": "./posts/feed_20260512_022534/index.html",
      "legacy_id": "fixed-event-20260512_022534",
      "image": "image/feed_20260512_022534.png",
      "image_url": "image/feed_20260512_022534.png",
      "avatar_url": "image/avatar/normal.png",
      "image_prompt": "cinematic illustration, based on this short story: うんこが土に吸い込まれていった。 英訳: The poop sank into the soil. これは唯一の例文とその英訳を提供しました。, plain illustration only, no readable text, no letters, no captions, no speech bubbles, no signs, no posters, no labels, no handwriting",
      "image_negative": "photorealistic, text, watermark, logo, low quality, blurry, underexposed, too dark, text, letters, words, captions, speech bubbles, dialogue balloons, signs, posters, labels, handwriting, watermark, logo",
      "image_model": "stabilityai/sdxl-turbo",
      "image_generated_at": "2026-05-11T17:30:26Z"
    },
    {
      "id": "feed_20260511_235028",
      "kind": "event",
      "date": "2026-05-11",
      "created_at": "2026-05-11T14:50:28Z",
      "text": "うんこが臭いね。\n英訳: Smells like something fishy.\nこの例では、「うんこ」を使用し、その英訳を提供しました。他には一切の追加情報を含めていません。",
      "tweet": "うんこが臭いね。\n英訳: Smells like something fishy.\nこの例では、「うんこ」を使用し、その英訳を提供しました。他には一切の追加情報を含めていません。",
      "place": "",
      "links": [],
      "avatar_image": "image/avatar/normal.png",
      "permalink": "./posts/feed_20260511_235028/index.html",
      "legacy_id": "fixed-event-20260511_235028",
      "image": "image/feed_20260511_235028.png",
      "image_url": "image/feed_20260511_235028.png",
      "avatar_url": "image/avatar/normal.png",
      "image_prompt": "cinematic illustration, based on this short story: うんこが臭いね。 英訳: Smells like something fishy. この例では、「うんこ」を使用し、その英訳を提供しました。他には一切の追加情報を含めていません。, plain illustration only, no readable text, no letters, no captions, no speech bubbles, no signs, no posters, no labels, no handwriting",
      "image_negative": "photorealistic, text, watermark, logo, low quality, blurry, underexposed, too dark, text, letters, words, captions, speech bubbles, dialogue balloons, signs, posters, labels, handwriting, watermark, logo",
      "image_model": "stabilityai/sdxl-turbo",
      "image_generated_at": "2026-05-11T14:55:13Z"
    },
    {
      "id": "feed_20260511_202002",
      "kind": "event",
      "date": "2026-05-11",
      "created_at": "2026-05-11T11:20:02Z",
      "text": "うんこが臭いです。\n英訳: Its stinks.\nこの形式に従っていませんでしたみ、すぐに訂正します。\nうんこを食べたら病気になります。\nIf you eat poop, you'll get sick.",
      "tweet": "うんこが臭いです。\n英訳: Its stinks.\nこの形式に従っていませんでしたみ、すぐに訂正します。\nうんこを食べたら病気になります。\nIf you eat poop, you'll get sick.",
      "place": "",
      "links": [],
      "avatar_image": "image/avatar/normal.png",
      "permalink": "./posts/feed_20260511_202002/index.html",
      "legacy_id": "fixed-event-20260511_202002",
      "image": "image/feed_20260511_202002.png",
      "image_url": "image/feed_20260511_202002.png",
      "avatar_url": "image/avatar/normal.png",
      "image_prompt": "cinematic illustration, based on this short story: うんこが臭いです。 英訳: Its stinks. この形式に従っていませんでしたみ、すぐに訂正します。 うんこを食べたら病気になります。 If you eat poop, you'll get sick., plain illustration only, no readable text, no letters, no captions, no speech bubbles, no signs, no posters, no labels, no handwriting",
      "image_negative": "photorealistic, text, watermark, logo, low quality, blurry, underexposed, too dark, text, letters, words, captions, speech bubbles, dialogue balloons, signs, posters, labels, handwriting, watermark, logo",
      "image_model": "stabilityai/sdxl-turbo",
      "image_generated_at": "2026-05-11T11:23:56Z"
    },
    {
      "id": "feed_20260511_164213",
      "kind": "event",
      "date": "2026-05-11",
      "created_at": "2026-05-11T07:42:13Z",
      "text": "うんこが汚いです。\n英訳: Stinky poop.\n日本語の例文\n英訳\nうんこが美味しかったです。\nThe poop was delicious.",
      "tweet": "うんこが汚いです。\n英訳: Stinky poop.\n日本語の例文\n英訳\nうんこが美味しかったです。\nThe poop was delicious.",
      "place": "",
      "links": [],
      "avatar_image": "image/avatar/normal.png",
      "permalink": "./posts/feed_20260511_164213/index.html",
      "legacy_id": "fixed-event-20260511_164213",
      "image": "image/feed_20260511_164213.png",
      "image_url": "image/feed_20260511_164213.png",
      "avatar_url": "image/avatar/normal.png",
      "image_prompt": "cinematic illustration, based on this short story: うんこが汚いです。 英訳: Stinky poop. 日本語の例文 英訳 うんこが美味しかったです。 The poop was delicious., plain illustration only, no readable text, no letters, no captions, no speech bubbles, no signs, no posters, no labels, no handwriting",
      "image_negative": "photorealistic, text, watermark, logo, low quality, blurry, underexposed, too dark, text, letters, words, captions, speech bubbles, dialogue balloons, signs, posters, labels, handwriting, watermark, logo",
      "image_model": "stabilityai/sdxl-turbo",
      "image_generated_at": "2026-05-11T07:46:49Z"
    },
    {
      "id": "feed_20260511_122830",
      "kind": "event",
      "date": "2026-05-11",
      "created_at": "2026-05-11T03:28:30Z",
      "text": "うんこが気持ちいい。\n英訳: It feels good to poop.\nこの回答は、条件に従って\"うんこ\"を含む日本語とそれに相当する英訳だけを提供しています。",
      "tweet": "うんこが気持ちいい。\n英訳: It feels good to poop.\nこの回答は、条件に従って\"うんこ\"を含む日本語とそれに相当する英訳だけを提供しています。",
      "place": "",
      "links": [],
      "avatar_image": "image/avatar/normal.png",
      "permalink": "./posts/feed_20260511_122830/index.html",
      "legacy_id": "fixed-event-20260511_122830",
      "image": "image/feed_20260511_122830.png",
      "image_url": "image/feed_20260511_122830.png",
      "avatar_url": "image/avatar/normal.png",
      "image_prompt": "cinematic illustration, based on this short story: うんこが気持ちいい。 英訳: It feels good to poop. この回答は、条件に従って\"うんこ\"を含む日本語とそれに相当する英訳だけを提供しています。, plain illustration only, no readable text, no letters, no captions, no speech bubbles, no signs, no posters, no labels, no handwriting",
      "image_negative": "photorealistic, text, watermark, logo, low quality, blurry, underexposed, too dark, text, letters, words, captions, speech bubbles, dialogue balloons, signs, posters, labels, handwriting, watermark, logo",
      "image_model": "stabilityai/sdxl-turbo",
      "image_generated_at": "2026-05-11T03:33:01Z"
    },
    {
      "id": "feed_20260511_085424",
      "kind": "event",
      "date": "2026-05-11",
      "created_at": "2026-05-10T23:54:24Z",
      "text": "うんこを拾ってください。\n英訳: Pick up the poop.\nこの形式に従って2行のみを回答しましたが、\"うんこ\" を含む例文とその英訳だけを提供しています。",
      "tweet": "うんこを拾ってください。\n英訳: Pick up the poop.\nこの形式に従って2行のみを回答しましたが、\"うんこ\" を含む例文とその英訳だけを提供しています。",
      "place": "",
      "links": [],
      "avatar_image": "image/avatar/normal.png",
      "permalink": "./posts/feed_20260511_085424/index.html",
      "legacy_id": "fixed-event-20260511_085424",
      "image": "image/feed_20260511_085424.png",
      "image_url": "image/feed_20260511_085424.png",
      "avatar_url": "image/avatar/normal.png",
      "image_prompt": "cinematic illustration, based on this short story: うんこを拾ってください。 英訳: Pick up the poop. この形式に従って2行のみを回答しましたが、\"うんこ\" を含む例文とその英訳だけを提供しています。, plain illustration only, no readable text, no letters, no captions, no speech bubbles, no signs, no posters, no labels, no handwriting",
      "image_negative": "photorealistic, text, watermark, logo, low quality, blurry, underexposed, too dark, text, letters, words, captions, speech bubbles, dialogue balloons, signs, posters, labels, handwriting, watermark, logo",
      "image_model": "stabilityai/sdxl-turbo",
      "image_generated_at": "2026-05-10T23:59:19Z"
    }
  ],
  "count": 20,
  "page": 1,
  "page_size": 20,
  "total_items": 311,
  "total_pages": 16,
  "next_feed_url": "./feed/page_002.json"
}
