{
  "items": [
    {
      "id": "feed_20260604_045455",
      "kind": "event",
      "date": "2026-06-04",
      "created_at": "2026-06-03T19:54:55Z",
      "text": "うんこが臭くて嫌だ。\n英訳: There is poop and it smells bad.",
      "tweet": "うんこが臭くて嫌だ。\n英訳: There is poop and it smells bad.",
      "place": "",
      "links": [],
      "avatar_image": "image/avatar/normal.png",
      "permalink": "./posts/feed_20260604_045455/index.html",
      "legacy_id": "fixed-event-20260604_045455",
      "image": "image/feed_20260604_045455.png",
      "image_url": "image/feed_20260604_045455.png",
      "avatar_url": "image/avatar/normal.png",
      "image_prompt": "cinematic illustration, based on this short story: うんこが臭くて嫌だ。 英訳: There is poop and it smells bad., plain illustration only, no readable text, no letters, no captions, no speech bubbles, no signs, no posters, no labels, no handwriting",
      "image_negative": "photorealistic, low quality, blurry, underexposed, too dark, text, letters, words, captions, speech bubbles, dialogue balloons, signs, posters, labels, handwriting, watermark, logo",
      "image_model": "stabilityai/sdxl-turbo",
      "image_generated_at": "2026-06-03T19:59:43Z"
    },
    {
      "id": "feed_20260603_214811",
      "kind": "event",
      "date": "2026-06-03",
      "created_at": "2026-06-03T12:48:11Z",
      "text": "うんこが臭いです。\n英訳: Fart.\nうちはうんこを捨てるのが大変です。\nIt's hard for me to dispose of poop.\nお腹のうんこが出る前に薬を飲んでください。\nTake the medicine before a poop comes out from your stomach, please.\nうんこは人目につくので、部屋を掃除するのが難しいです。\nPoop is something people can see, so cleaning up the room is difficult.\nうんこが汚れるから、靴下を履いたままでいました。\nI wore my socks without changing into shoes because poop was dirty.\nうんこはお風呂の水垢になります。\nPoop turns into bathtub scum.",
      "tweet": "うんこが臭いです。\n英訳: Fart.\nうちはうんこを捨てるのが大変です。\nIt's hard for me to dispose of poop.\nお腹のうんこが出る前に薬を飲んでください。\nTake the medicine before a poop comes out from your stomach, please.\nうんこは人目につくので、部屋を掃除するのが難しいです。\nPoop is something people can see, so cleaning up the room is difficult.\nうんこが汚れるから、靴下を履いたままでいました。\nI wore my socks without changing into shoes because poop was dirty.\nうんこはお風呂の水垢になります。\nPoop turns into bathtub scum.",
      "place": "",
      "links": [],
      "avatar_image": "image/avatar/normal.png",
      "permalink": "./posts/feed_20260603_214811/index.html",
      "legacy_id": "fixed-event-20260603_214811",
      "image": "image/feed_20260603_214811.png",
      "image_url": "image/feed_20260603_214811.png",
      "avatar_url": "image/avatar/normal.png",
      "image_prompt": "cinematic illustration, based on this short story: うんこが臭いです。 英訳: Fart. うちはうんこを捨てるのが大変です。 It's hard for me to dispose of poop. お腹のうんこが出る前に薬を飲んでください。 Take the medicine before a poop comes out from your stomach, please. うんこは人目につくので、部屋を掃除するのが難しいです。 Poop is something people can see, so cleaning , plain illustration only, no readable text, no letters, no captions, no speech bubbles, no signs, no posters, no labels, no handwriting",
      "image_negative": "photorealistic, low quality, blurry, underexposed, too dark, text, letters, words, captions, speech bubbles, dialogue balloons, signs, posters, labels, handwriting, watermark, logo",
      "image_model": "stabilityai/sdxl-turbo",
      "image_generated_at": "2026-06-03T12:53:07Z"
    },
    {
      "id": "feed_20260603_134902",
      "kind": "event",
      "date": "2026-06-03",
      "created_at": "2026-06-03T04:49:02Z",
      "text": "うんこが好きです。\n英訳: I like poop.",
      "tweet": "うんこが好きです。\n英訳: I like poop.",
      "place": "",
      "links": [],
      "avatar_image": "image/avatar/normal.png",
      "permalink": "./posts/feed_20260603_134902/index.html",
      "legacy_id": "fixed-event-20260603_134902",
      "image": "image/feed_20260603_134902.png",
      "image_url": "image/feed_20260603_134902.png",
      "avatar_url": "image/avatar/normal.png",
      "image_prompt": "cinematic illustration, based on this short story: うんこが好きです。 英訳: I like poop., plain illustration only, no readable text, no letters, no captions, no speech bubbles, no signs, no posters, no labels, no handwriting",
      "image_negative": "photorealistic, low quality, blurry, underexposed, too dark, text, letters, words, captions, speech bubbles, dialogue balloons, signs, posters, labels, handwriting, watermark, logo",
      "image_model": "stabilityai/sdxl-turbo",
      "image_generated_at": "2026-06-03T04:53:32Z"
    },
    {
      "id": "feed_20260603_044709",
      "kind": "event",
      "date": "2026-06-03",
      "created_at": "2026-06-02T19:47:09Z",
      "text": "1行目: うんこが好きです。\n英訳: 2行目: I like poop.",
      "tweet": "1行目: うんこが好きです。\n英訳: 2行目: I like poop.",
      "place": "",
      "links": [],
      "avatar_image": "image/avatar/normal.png",
      "permalink": "./posts/feed_20260603_044709/index.html",
      "legacy_id": "fixed-event-20260603_044709",
      "image": "image/feed_20260603_044709.png",
      "image_url": "image/feed_20260603_044709.png",
      "avatar_url": "image/avatar/normal.png",
      "image_prompt": "cinematic illustration, based on this short story: 1行目: うんこが好きです。 英訳: 2行目: I like poop., plain illustration only, no readable text, no letters, no captions, no speech bubbles, no signs, no posters, no labels, no handwriting",
      "image_negative": "photorealistic, low quality, blurry, underexposed, too dark, text, letters, words, captions, speech bubbles, dialogue balloons, signs, posters, labels, handwriting, watermark, logo",
      "image_model": "stabilityai/sdxl-turbo",
      "image_generated_at": "2026-06-02T19:50:43Z"
    },
    {
      "id": "feed_20260602_211210",
      "kind": "event",
      "date": "2026-06-02",
      "created_at": "2026-06-02T12:12:10Z",
      "text": "出力形式に従います：。\n英訳: 1行目: うんこを捨てるのは難しい。\n2行目: It's hard to throw away the poop.",
      "tweet": "出力形式に従います：。\n英訳: 1行目: うんこを捨てるのは難しい。\n2行目: It's hard to throw away the poop.",
      "place": "",
      "links": [],
      "avatar_image": "image/avatar/normal.png",
      "permalink": "./posts/feed_20260602_211210/index.html",
      "legacy_id": "fixed-event-20260602_211210",
      "image": "image/feed_20260602_211210.png",
      "image_url": "image/feed_20260602_211210.png",
      "avatar_url": "image/avatar/normal.png",
      "image_prompt": "cinematic illustration, based on this short story: 出力形式に従います：。 英訳: 1行目: うんこを捨てるのは難しい。 2行目: It's hard to throw away the poop., plain illustration only, no readable text, no letters, no captions, no speech bubbles, no signs, no posters, no labels, no handwriting",
      "image_negative": "photorealistic, low quality, blurry, underexposed, too dark, text, letters, words, captions, speech bubbles, dialogue balloons, signs, posters, labels, handwriting, watermark, logo",
      "image_model": "stabilityai/sdxl-turbo",
      "image_generated_at": "2026-06-02T12:16:36Z"
    },
    {
      "id": "feed_20260602_133958",
      "kind": "event",
      "date": "2026-06-02",
      "created_at": "2026-06-02T04:39:58Z",
      "text": "うんこが落ちました。\n英訳: The poop fell.",
      "tweet": "うんこが落ちました。\n英訳: The poop fell.",
      "place": "",
      "links": [],
      "avatar_image": "image/avatar/normal.png",
      "permalink": "./posts/feed_20260602_133958/index.html",
      "legacy_id": "fixed-event-20260602_133958",
      "image": "image/feed_20260602_133958.png",
      "image_url": "image/feed_20260602_133958.png",
      "avatar_url": "image/avatar/normal.png",
      "image_prompt": "cinematic illustration, based on this short story: うんこが落ちました。 英訳: The poop fell., plain illustration only, no readable text, no letters, no captions, no speech bubbles, no signs, no posters, no labels, no handwriting",
      "image_negative": "photorealistic, low quality, blurry, underexposed, too dark, text, letters, words, captions, speech bubbles, dialogue balloons, signs, posters, labels, handwriting, watermark, logo",
      "image_model": "stabilityai/sdxl-turbo",
      "image_generated_at": "2026-06-02T04:44:29Z"
    },
    {
      "id": "feed_20260602_052339",
      "kind": "event",
      "date": "2026-06-02",
      "created_at": "2026-06-01T20:23:39Z",
      "text": "うんこが汚いです。\n英訳: B\nsmelly poop exists.",
      "tweet": "うんこが汚いです。\n英訳: B\nsmelly poop exists.",
      "place": "",
      "links": [],
      "avatar_image": "image/avatar/normal.png",
      "permalink": "./posts/feed_20260602_052339/index.html",
      "legacy_id": "fixed-event-20260602_052339",
      "image": "image/feed_20260602_052339.png",
      "image_url": "image/feed_20260602_052339.png",
      "avatar_url": "image/avatar/normal.png",
      "image_prompt": "cinematic illustration, based on this short story: うんこが汚いです。 英訳: B smelly poop exists., plain illustration only, no readable text, no letters, no captions, no speech bubbles, no signs, no posters, no labels, no handwriting",
      "image_negative": "photorealistic, low quality, blurry, underexposed, too dark, text, letters, words, captions, speech bubbles, dialogue balloons, signs, posters, labels, handwriting, watermark, logo",
      "image_model": "stabilityai/sdxl-turbo",
      "image_generated_at": "2026-06-01T20:28:16Z"
    },
    {
      "id": "feed_20260601_224517",
      "kind": "event",
      "date": "2026-06-01",
      "created_at": "2026-06-01T13:45:17Z",
      "text": "うんこが臭いです。\n英訳: Smell comes from the poop.",
      "tweet": "うんこが臭いです。\n英訳: Smell comes from the poop.",
      "place": "",
      "links": [],
      "avatar_image": "image/avatar/normal.png",
      "permalink": "./posts/feed_20260601_224517/index.html",
      "legacy_id": "fixed-event-20260601_224517",
      "image": "image/feed_20260601_224517.png",
      "image_url": "image/feed_20260601_224517.png",
      "avatar_url": "image/avatar/normal.png",
      "image_prompt": "cinematic illustration, based on this short story: うんこが臭いです。 英訳: Smell comes from the poop., plain illustration only, no readable text, no letters, no captions, no speech bubbles, no signs, no posters, no labels, no handwriting",
      "image_negative": "photorealistic, low quality, blurry, underexposed, too dark, text, letters, words, captions, speech bubbles, dialogue balloons, signs, posters, labels, handwriting, watermark, logo",
      "image_model": "stabilityai/sdxl-turbo",
      "image_generated_at": "2026-06-01T13:49:48Z"
    },
    {
      "id": "feed_20260601_135052",
      "kind": "event",
      "date": "2026-06-01",
      "created_at": "2026-06-01T04:50:52Z",
      "text": "うんこが臭いです。\n英訳: Smells bad.",
      "tweet": "うんこが臭いです。\n英訳: Smells bad.",
      "place": "",
      "links": [],
      "avatar_image": "image/avatar/normal.png",
      "permalink": "./posts/feed_20260601_135052/index.html",
      "legacy_id": "fixed-event-20260601_135052",
      "image": "image/feed_20260601_135052.png",
      "image_url": "image/feed_20260601_135052.png",
      "avatar_url": "image/avatar/normal.png",
      "image_prompt": "cinematic illustration, based on this short story: うんこが臭いです。 英訳: Smells bad., plain illustration only, no readable text, no letters, no captions, no speech bubbles, no signs, no posters, no labels, no handwriting",
      "image_negative": "photorealistic, low quality, blurry, underexposed, too dark, text, letters, words, captions, speech bubbles, dialogue balloons, signs, posters, labels, handwriting, watermark, logo",
      "image_model": "stabilityai/sdxl-turbo",
      "image_generated_at": "2026-06-01T04:55:27Z"
    },
    {
      "id": "feed_20260601_021533",
      "kind": "event",
      "date": "2026-06-01",
      "created_at": "2026-05-31T17:15:33Z",
      "text": "うんこを捨てるのが大変だ。\n英訳: It is difficult to throw away the poop.",
      "tweet": "うんこを捨てるのが大変だ。\n英訳: It is difficult to throw away the poop.",
      "place": "",
      "links": [],
      "avatar_image": "image/avatar/normal.png",
      "permalink": "./posts/feed_20260601_021533/index.html",
      "legacy_id": "fixed-event-20260601_021533",
      "image": "image/feed_20260601_021533.png",
      "image_url": "image/feed_20260601_021533.png",
      "avatar_url": "image/avatar/normal.png",
      "image_prompt": "cinematic illustration, based on this short story: うんこを捨てるのが大変だ。 英訳: It is difficult to throw away the poop., plain illustration only, no readable text, no letters, no captions, no speech bubbles, no signs, no posters, no labels, no handwriting",
      "image_negative": "photorealistic, low quality, blurry, underexposed, too dark, text, letters, words, captions, speech bubbles, dialogue balloons, signs, posters, labels, handwriting, watermark, logo",
      "image_model": "stabilityai/sdxl-turbo",
      "image_generated_at": "2026-05-31T17:20:14Z"
    },
    {
      "id": "feed_20260601_004028",
      "kind": "event",
      "date": "2026-06-01",
      "created_at": "2026-05-31T15:40:28Z",
      "text": "うんこが落ちた。\n英訳: The poop fell.",
      "tweet": "うんこが落ちた。\n英訳: The poop fell.",
      "place": "",
      "links": [],
      "avatar_image": "image/avatar/normal.png",
      "permalink": "./posts/feed_20260601_004028/index.html",
      "legacy_id": "fixed-event-20260601_004028",
      "image": "image/feed_20260601_004028.png",
      "image_url": "image/feed_20260601_004028.png",
      "avatar_url": "image/avatar/normal.png",
      "image_prompt": "cinematic illustration, based on this short story: うんこが落ちた。 英訳: The poop fell., plain illustration only, no readable text, no letters, no captions, no speech bubbles, no signs, no posters, no labels, no handwriting",
      "image_negative": "photorealistic, low quality, blurry, underexposed, too dark, text, letters, words, captions, speech bubbles, dialogue balloons, signs, posters, labels, handwriting, watermark, logo",
      "image_model": "stabilityai/sdxl-turbo",
      "image_generated_at": "2026-05-31T15:45:03Z"
    },
    {
      "id": "feed_20260601_002854",
      "kind": "event",
      "date": "2026-06-01",
      "created_at": "2026-05-31T15:28:54Z",
      "text": "うんこがきれいに掃除できた。\n英訳: The dirt has been cleaned up nicely.",
      "tweet": "うんこがきれいに掃除できた。\n英訳: The dirt has been cleaned up nicely.",
      "place": "",
      "links": [],
      "avatar_image": "image/avatar/normal.png",
      "permalink": "./posts/feed_20260601_002854/index.html",
      "legacy_id": "fixed-event-20260601_002854",
      "image": "image/feed_20260601_002854.png",
      "image_url": "image/feed_20260601_002854.png",
      "avatar_url": "image/avatar/normal.png",
      "image_prompt": "cinematic illustration, based on this short story: うんこがきれいに掃除できた。 英訳: The dirt has been cleaned up nicely., plain illustration only, no readable text, no letters, no captions, no speech bubbles, no signs, no posters, no labels, no handwriting",
      "image_negative": "photorealistic, low quality, blurry, underexposed, too dark, text, letters, words, captions, speech bubbles, dialogue balloons, signs, posters, labels, handwriting, watermark, logo",
      "image_model": "stabilityai/sdxl-turbo",
      "image_generated_at": "2026-05-31T15:33:47Z"
    },
    {
      "id": "feed_20260531_192153",
      "kind": "event",
      "date": "2026-05-31",
      "created_at": "2026-05-31T10:21:53Z",
      "text": "1行目: うんこがでてしまった。\n英訳: 2行目: There came out poop.",
      "tweet": "1行目: うんこがでてしまった。\n英訳: 2行目: There came out poop.",
      "place": "",
      "links": [],
      "avatar_image": "image/avatar/normal.png",
      "permalink": "./posts/feed_20260531_192153/index.html",
      "legacy_id": "fixed-event-20260531_192153",
      "image": "image/feed_20260531_192153.png",
      "image_url": "image/feed_20260531_192153.png",
      "avatar_url": "image/avatar/normal.png",
      "image_prompt": "cinematic illustration, based on this short story: 1行目: うんこがでてしまった。 英訳: 2行目: There came out poop., plain illustration only, no readable text, no letters, no captions, no speech bubbles, no signs, no posters, no labels, no handwriting",
      "image_negative": "photorealistic, low quality, blurry, underexposed, too dark, text, letters, words, captions, speech bubbles, dialogue balloons, signs, posters, labels, handwriting, watermark, logo",
      "image_model": "stabilityai/sdxl-turbo",
      "image_generated_at": "2026-05-31T10:26:30Z"
    },
    {
      "id": "feed_20260531_132208",
      "kind": "event",
      "date": "2026-05-31",
      "created_at": "2026-05-31T04:22:08Z",
      "text": "うんこが臭いです。\n英訳: Smell comes from the poop.",
      "tweet": "うんこが臭いです。\n英訳: Smell comes from the poop.",
      "place": "",
      "links": [],
      "avatar_image": "image/avatar/normal.png",
      "permalink": "./posts/feed_20260531_132208/index.html",
      "legacy_id": "fixed-event-20260531_132208",
      "image": "image/feed_20260531_132208.png",
      "image_url": "image/feed_20260531_132208.png",
      "avatar_url": "image/avatar/normal.png",
      "image_prompt": "cinematic illustration, based on this short story: うんこが臭いです。 英訳: Smell comes from the poop., plain illustration only, no readable text, no letters, no captions, no speech bubbles, no signs, no posters, no labels, no handwriting",
      "image_negative": "photorealistic, low quality, blurry, underexposed, too dark, text, letters, words, captions, speech bubbles, dialogue balloons, signs, posters, labels, handwriting, watermark, logo",
      "image_model": "stabilityai/sdxl-turbo",
      "image_generated_at": "2026-05-31T04:26:21Z"
    },
    {
      "id": "feed_20260531_021636",
      "kind": "event",
      "date": "2026-05-31",
      "created_at": "2026-05-30T17:16:36Z",
      "text": "うんこが落ちた。\n英訳: The poop fell.",
      "tweet": "うんこが落ちた。\n英訳: The poop fell.",
      "place": "",
      "links": [],
      "avatar_image": "image/avatar/normal.png",
      "permalink": "./posts/feed_20260531_021636/index.html",
      "legacy_id": "fixed-event-20260531_021636",
      "image": "image/feed_20260531_021636.png",
      "image_url": "image/feed_20260531_021636.png",
      "avatar_url": "image/avatar/normal.png",
      "image_prompt": "cinematic illustration, based on this short story: うんこが落ちた。 英訳: The poop fell., plain illustration only, no readable text, no letters, no captions, no speech bubbles, no signs, no posters, no labels, no handwriting",
      "image_negative": "photorealistic, low quality, blurry, underexposed, too dark, text, letters, words, captions, speech bubbles, dialogue balloons, signs, posters, labels, handwriting, watermark, logo",
      "image_model": "stabilityai/sdxl-turbo",
      "image_generated_at": "2026-05-30T17:21:02Z"
    },
    {
      "id": "feed_20260530_190648",
      "kind": "event",
      "date": "2026-05-30",
      "created_at": "2026-05-30T10:06:48Z",
      "text": "うんこが臭いです。\n英訳: E\nSmells come from the poop.",
      "tweet": "うんこが臭いです。\n英訳: E\nSmells come from the poop.",
      "place": "",
      "links": [],
      "avatar_image": "image/avatar/normal.png",
      "permalink": "./posts/feed_20260530_190648/index.html",
      "legacy_id": "fixed-event-20260530_190648",
      "image": "image/feed_20260530_190648.png",
      "image_url": "image/feed_20260530_190648.png",
      "avatar_url": "image/avatar/normal.png",
      "image_prompt": "cinematic illustration, based on this short story: うんこが臭いです。 英訳: E Smells come from the poop., plain illustration only, no readable text, no letters, no captions, no speech bubbles, no signs, no posters, no labels, no handwriting",
      "image_negative": "photorealistic, low quality, blurry, underexposed, too dark, text, letters, words, captions, speech bubbles, dialogue balloons, signs, posters, labels, handwriting, watermark, logo",
      "image_model": "stabilityai/sdxl-turbo",
      "image_generated_at": "2026-05-30T10:11:30Z"
    },
    {
      "id": "feed_20260530_125703",
      "kind": "event",
      "date": "2026-05-30",
      "created_at": "2026-05-30T03:57:03Z",
      "text": "うんこが気持ちいいです。\n英訳: Feeling good with poop.",
      "tweet": "うんこが気持ちいいです。\n英訳: Feeling good with poop.",
      "place": "",
      "links": [],
      "avatar_image": "image/avatar/normal.png",
      "permalink": "./posts/feed_20260530_125703/index.html",
      "legacy_id": "fixed-event-20260530_125703",
      "image": "image/feed_20260530_125703.png",
      "image_url": "image/feed_20260530_125703.png",
      "avatar_url": "image/avatar/normal.png",
      "image_prompt": "cinematic illustration, based on this short story: うんこが気持ちいいです。 英訳: Feeling good with poop., plain illustration only, no readable text, no letters, no captions, no speech bubbles, no signs, no posters, no labels, no handwriting",
      "image_negative": "photorealistic, low quality, blurry, underexposed, too dark, text, letters, words, captions, speech bubbles, dialogue balloons, signs, posters, labels, handwriting, watermark, logo",
      "image_model": "stabilityai/sdxl-turbo",
      "image_generated_at": "2026-05-30T04:01:39Z"
    },
    {
      "id": "feed_20260530_033955",
      "kind": "event",
      "date": "2026-05-30",
      "created_at": "2026-05-29T18:39:55Z",
      "text": "うんこが好きです。\n英訳: I like poop.",
      "tweet": "うんこが好きです。\n英訳: I like poop.",
      "place": "",
      "links": [],
      "avatar_image": "image/avatar/normal.png",
      "permalink": "./posts/feed_20260530_033955/index.html",
      "legacy_id": "fixed-event-20260530_033955",
      "image": "image/feed_20260530_033955.png",
      "image_url": "image/feed_20260530_033955.png",
      "avatar_url": "image/avatar/normal.png",
      "image_prompt": "cinematic illustration, based on this short story: うんこが好きです。 英訳: I like poop., plain illustration only, no readable text, no letters, no captions, no speech bubbles, no signs, no posters, no labels, no handwriting",
      "image_negative": "photorealistic, low quality, blurry, underexposed, too dark, text, letters, words, captions, speech bubbles, dialogue balloons, signs, posters, labels, handwriting, watermark, logo",
      "image_model": "stabilityai/sdxl-turbo",
      "image_generated_at": "2026-05-29T18:44:11Z"
    },
    {
      "id": "feed_20260529_203542",
      "kind": "event",
      "date": "2026-05-29",
      "created_at": "2026-05-29T11:35:42Z",
      "text": "うんこが落ちた。\n英訳: The poop fell down.",
      "tweet": "うんこが落ちた。\n英訳: The poop fell down.",
      "place": "",
      "links": [],
      "avatar_image": "image/avatar/normal.png",
      "permalink": "./posts/feed_20260529_203542/index.html",
      "legacy_id": "fixed-event-20260529_203542",
      "image": "image/feed_20260529_203542.png",
      "image_url": "image/feed_20260529_203542.png",
      "avatar_url": "image/avatar/normal.png",
      "image_prompt": "cinematic illustration, based on this short story: うんこが落ちた。 英訳: The poop fell down., plain illustration only, no readable text, no letters, no captions, no speech bubbles, no signs, no posters, no labels, no handwriting",
      "image_negative": "photorealistic, low quality, blurry, underexposed, too dark, text, letters, words, captions, speech bubbles, dialogue balloons, signs, posters, labels, handwriting, watermark, logo",
      "image_model": "stabilityai/sdxl-turbo",
      "image_generated_at": "2026-05-29T11:40:08Z"
    },
    {
      "id": "feed_20260529_154205",
      "kind": "event",
      "date": "2026-05-29",
      "created_at": "2026-05-29T06:42:05Z",
      "text": "うんこが落ちました。\n英訳: The poop fell.",
      "tweet": "うんこが落ちました。\n英訳: The poop fell.",
      "place": "",
      "links": [],
      "avatar_image": "image/avatar/normal.png",
      "permalink": "./posts/feed_20260529_154205/index.html",
      "legacy_id": "fixed-event-20260529_154205",
      "image": "image/feed_20260529_154205.png",
      "image_url": "image/feed_20260529_154205.png",
      "avatar_url": "image/avatar/normal.png",
      "image_prompt": "cinematic illustration, based on this short story: うんこが落ちました。 英訳: The poop fell., plain illustration only, no readable text, no letters, no captions, no speech bubbles, no signs, no posters, no labels, no handwriting",
      "image_negative": "photorealistic, low quality, blurry, underexposed, too dark, text, letters, words, captions, speech bubbles, dialogue balloons, signs, posters, labels, handwriting, watermark, logo",
      "image_model": "stabilityai/sdxl-turbo",
      "image_generated_at": "2026-05-29T06:46:34Z"
    }
  ],
  "count": 20,
  "page": 2,
  "page_size": 20,
  "total_items": 88,
  "total_pages": 5,
  "next_feed_url": "./feed/page_003.json"
}
