{
  "items": [
    {
      "id": "feed_20260506_231026",
      "kind": "event",
      "date": "2026-05-06",
      "created_at": "2026-05-06T14:10:26Z",
      "text": "うんこが食べられる。\n英訳: Nothing can eat poop.",
      "tweet": "うんこが食べられる。\n英訳: Nothing can eat poop.",
      "place": "",
      "links": [],
      "avatar_image": "image/avatar/normal.png",
      "permalink": "./posts/feed_20260506_231026/index.html",
      "legacy_id": "fixed-event-20260506_231026",
      "image": "image/feed_20260506_231026.png",
      "image_url": "image/feed_20260506_231026.png",
      "avatar_url": "image/avatar/normal.png",
      "image_prompt": "cinematic illustration, based on this short story: うんこが食べられる。 英訳: Nothing can eat poop., plain illustration only, no readable text, no letters, no captions, no speech bubbles, no signs, no posters, no labels, no handwriting",
      "image_negative": "photorealistic, text, watermark, logo, low quality, blurry, underexposed, too dark, text, letters, words, captions, speech bubbles, dialogue balloons, signs, posters, labels, handwriting, watermark, logo",
      "image_model": "stabilityai/sdxl-turbo",
      "image_generated_at": "2026-05-06T14:15:06Z"
    },
    {
      "id": "feed_20260506_200758",
      "kind": "event",
      "date": "2026-05-06",
      "created_at": "2026-05-06T11:07:58Z",
      "text": "うんこが食べれるのは人間だけです。\n英訳: Only humans can eat poop.",
      "tweet": "うんこが食べれるのは人間だけです。\n英訳: Only humans can eat poop.",
      "place": "",
      "links": [],
      "avatar_image": "image/avatar/normal.png",
      "permalink": "./posts/feed_20260506_200758/index.html",
      "legacy_id": "fixed-event-20260506_200758",
      "image": "image/feed_20260506_200758.png",
      "image_url": "image/feed_20260506_200758.png",
      "avatar_url": "image/avatar/normal.png",
      "image_prompt": "cinematic illustration, based on this short story: うんこが食べれるのは人間だけです。 英訳: Only humans can eat poop., plain illustration only, no readable text, no letters, no captions, no speech bubbles, no signs, no posters, no labels, no handwriting",
      "image_negative": "photorealistic, text, watermark, logo, low quality, blurry, underexposed, too dark, text, letters, words, captions, speech bubbles, dialogue balloons, signs, posters, labels, handwriting, watermark, logo",
      "image_model": "stabilityai/sdxl-turbo",
      "image_generated_at": "2026-05-06T11:12:35Z"
    },
    {
      "id": "feed_20260506_145846",
      "kind": "event",
      "date": "2026-05-06",
      "created_at": "2026-05-06T05:58:46Z",
      "text": "うんこが食べられるか疑問に思った。\n英訳: Curious if poop can be eaten.",
      "tweet": "うんこが食べられるか疑問に思った。\n英訳: Curious if poop can be eaten.",
      "place": "",
      "links": [],
      "avatar_image": "image/avatar/normal.png",
      "permalink": "./posts/feed_20260506_145846/index.html",
      "legacy_id": "fixed-event-20260506_145846",
      "image": "image/feed_20260506_145846.png",
      "image_url": "image/feed_20260506_145846.png",
      "avatar_url": "image/avatar/normal.png",
      "image_prompt": "cinematic illustration, based on this short story: うんこが食べられるか疑問に思った。 英訳: Curious if poop can be eaten., plain illustration only, no readable text, no letters, no captions, no speech bubbles, no signs, no posters, no labels, no handwriting",
      "image_negative": "photorealistic, text, watermark, logo, low quality, blurry, underexposed, too dark, text, letters, words, captions, speech bubbles, dialogue balloons, signs, posters, labels, handwriting, watermark, logo",
      "image_model": "stabilityai/sdxl-turbo",
      "image_generated_at": "2026-05-06T06:03:16Z"
    },
    {
      "id": "feed_20260506_114559",
      "kind": "event",
      "date": "2026-05-06",
      "created_at": "2026-05-06T02:45:59Z",
      "text": "うんこが食べられるのか？\n英訳: Can one eat poop?",
      "tweet": "うんこが食べられるのか？\n英訳: Can one eat poop?",
      "place": "",
      "links": [],
      "avatar_image": "image/avatar/normal.png",
      "permalink": "./posts/feed_20260506_114559/index.html",
      "legacy_id": "fixed-event-20260506_114559",
      "image": "image/feed_20260506_114559.png",
      "image_url": "image/feed_20260506_114559.png",
      "avatar_url": "image/avatar/normal.png",
      "image_prompt": "cinematic illustration, based on this short story: うんこが食べられるのか？ 英訳: Can one eat poop?, plain illustration only, no readable text, no letters, no captions, no speech bubbles, no signs, no posters, no labels, no handwriting",
      "image_negative": "photorealistic, text, watermark, logo, low quality, blurry, underexposed, too dark, text, letters, words, captions, speech bubbles, dialogue balloons, signs, posters, labels, handwriting, watermark, logo",
      "image_model": "stabilityai/sdxl-turbo",
      "image_generated_at": "2026-05-06T02:50:25Z"
    },
    {
      "id": "feed_20260506_084933",
      "kind": "event",
      "date": "2026-05-06",
      "created_at": "2026-05-05T23:49:33Z",
      "text": "うんこが hungry している。\n英訳: The poop is hungry.",
      "tweet": "うんこが hungry している。\n英訳: The poop is hungry.",
      "place": "",
      "links": [],
      "avatar_image": "image/avatar/normal.png",
      "permalink": "./posts/feed_20260506_084933/index.html",
      "legacy_id": "fixed-event-20260506_084933",
      "image": "image/feed_20260506_084933.png",
      "image_url": "image/feed_20260506_084933.png",
      "avatar_url": "image/avatar/normal.png",
      "image_prompt": "cinematic illustration, based on this short story: うんこが hungry している。 英訳: The poop is hungry., plain illustration only, no readable text, no letters, no captions, no speech bubbles, no signs, no posters, no labels, no handwriting",
      "image_negative": "photorealistic, text, watermark, logo, low quality, blurry, underexposed, too dark, text, letters, words, captions, speech bubbles, dialogue balloons, signs, posters, labels, handwriting, watermark, logo",
      "image_model": "stabilityai/sdxl-turbo",
      "image_generated_at": "2026-05-05T23:53:18Z"
    },
    {
      "id": "feed_20260506_075630",
      "kind": "event",
      "date": "2026-05-06",
      "created_at": "2026-05-05T22:56:30Z",
      "text": "うんこが食べたい。\n英訳: I want to eat poop.",
      "tweet": "うんこが食べたい。\n英訳: I want to eat poop.",
      "place": "",
      "links": [],
      "avatar_image": "image/avatar/normal.png",
      "permalink": "./posts/feed_20260506_075630/index.html",
      "legacy_id": "fixed-event-20260506_075630",
      "image": "image/feed_20260506_075630.png",
      "image_url": "image/feed_20260506_075630.png",
      "avatar_url": "image/avatar/normal.png",
      "image_prompt": "cinematic illustration, based on this short story: うんこが食べたい。 英訳: I want to eat poop., plain illustration only, no readable text, no letters, no captions, no speech bubbles, no signs, no posters, no labels, no handwriting",
      "image_negative": "photorealistic, text, watermark, logo, low quality, blurry, underexposed, too dark, text, letters, words, captions, speech bubbles, dialogue balloons, signs, posters, labels, handwriting, watermark, logo",
      "image_model": "stabilityai/sdxl-turbo",
      "image_generated_at": "2026-05-05T23:01:02Z"
    },
    {
      "id": "feed_20260506_060332",
      "kind": "event",
      "date": "2026-05-06",
      "created_at": "2026-05-05T21:03:32Z",
      "text": "うんこが落ちた。\n英訳: The poop fell.",
      "tweet": "うんこが落ちた。\n英訳: The poop fell.",
      "place": "",
      "links": [],
      "avatar_image": "image/avatar/normal.png",
      "permalink": "./posts/feed_20260506_060332/index.html",
      "legacy_id": "fixed-event-20260506_060332",
      "image": "image/feed_20260506_060332.png",
      "image_url": "image/feed_20260506_060332.png",
      "avatar_url": "image/avatar/normal.png",
      "image_prompt": "cinematic illustration, based on this short story: うんこが落ちた。 英訳: The poop fell., plain illustration only, no readable text, no letters, no captions, no speech bubbles, no signs, no posters, no labels, no handwriting",
      "image_negative": "photorealistic, text, watermark, logo, low quality, blurry, underexposed, too dark, text, letters, words, captions, speech bubbles, dialogue balloons, signs, posters, labels, handwriting, watermark, logo",
      "image_model": "stabilityai/sdxl-turbo",
      "image_generated_at": "2026-05-05T21:08:34Z"
    },
    {
      "id": "feed_20260506_042008",
      "kind": "event",
      "date": "2026-05-06",
      "created_at": "2026-05-05T19:20:08Z",
      "text": "うんこが落ちてきました。\n英訳: A piece of poop fell down.",
      "tweet": "うんこが落ちてきました。\n英訳: A piece of poop fell down.",
      "place": "",
      "links": [],
      "avatar_image": "image/avatar/normal.png",
      "permalink": "./posts/feed_20260506_042008/index.html",
      "legacy_id": "fixed-event-20260506_042008",
      "image": "image/feed_20260506_042008.png",
      "image_url": "image/feed_20260506_042008.png",
      "avatar_url": "image/avatar/normal.png",
      "image_prompt": "cinematic illustration, based on this short story: うんこが落ちてきました。 英訳: A piece of poop fell down., plain illustration only, no readable text, no letters, no captions, no speech bubbles, no signs, no posters, no labels, no handwriting",
      "image_negative": "photorealistic, text, watermark, logo, low quality, blurry, underexposed, too dark, text, letters, words, captions, speech bubbles, dialogue balloons, signs, posters, labels, handwriting, watermark, logo",
      "image_model": "stabilityai/sdxl-turbo",
      "image_generated_at": "2026-05-05T19:24:36Z"
    },
    {
      "id": "feed_20260506_022536",
      "kind": "event",
      "date": "2026-05-06",
      "created_at": "2026-05-05T17:25:36Z",
      "text": "うんこが落ちた。\n英訳: The poop fell.",
      "tweet": "うんこが落ちた。\n英訳: The poop fell.",
      "place": "",
      "links": [],
      "avatar_image": "image/avatar/normal.png",
      "permalink": "./posts/feed_20260506_022536/index.html",
      "legacy_id": "fixed-event-20260506_022536",
      "image": "image/feed_20260506_060332.png",
      "image_url": "image/feed_20260506_060332.png",
      "avatar_url": "image/avatar/normal.png",
      "image_prompt": "cinematic illustration, based on this short story: うんこが落ちた。 英訳: The poop fell., plain illustration only, no readable text, no letters, no captions, no speech bubbles, no signs, no posters, no labels, no handwriting",
      "image_negative": "photorealistic, text, watermark, logo, low quality, blurry, underexposed, too dark, text, letters, words, captions, speech bubbles, dialogue balloons, signs, posters, labels, handwriting, watermark, logo",
      "image_model": "stabilityai/sdxl-turbo",
      "image_generated_at": "2026-05-05T21:08:34Z"
    },
    {
      "id": "feed_20260505_210304",
      "kind": "event",
      "date": "2026-05-05",
      "created_at": "2026-05-05T12:03:04Z",
      "text": "うんこが落ちた。\n英訳: The poop fell.",
      "tweet": "うんこが落ちた。\n英訳: The poop fell.",
      "place": "",
      "links": [],
      "avatar_image": "image/avatar/normal.png",
      "permalink": "./posts/feed_20260505_210304/index.html",
      "legacy_id": "fixed-event-20260505_210304",
      "image": "image/feed_20260505_210304.png",
      "image_url": "image/feed_20260505_210304.png",
      "avatar_url": "image/avatar/normal.png",
      "image_prompt": "cinematic illustration, based on this short story: うんこが落ちた。 英訳: The poop fell., plain illustration only, no readable text, no letters, no captions, no speech bubbles, no signs, no posters, no labels, no handwriting",
      "image_negative": "photorealistic, text, watermark, logo, low quality, blurry, underexposed, too dark, text, letters, words, captions, speech bubbles, dialogue balloons, signs, posters, labels, handwriting, watermark, logo",
      "image_model": "stabilityai/sdxl-turbo",
      "image_generated_at": "2026-05-05T12:09:03Z"
    },
    {
      "id": "feed_20260505_194720",
      "kind": "event",
      "date": "2026-05-05",
      "created_at": "2026-05-05T10:47:20Z",
      "text": "うんこをこまめに掃除すると部屋が綺麗になる。\n英訳: One must clean the toilet frequently for the room to be tidy.",
      "tweet": "うんこをこまめに掃除すると部屋が綺麗になる。\n英訳: One must clean the toilet frequently for the room to be tidy.",
      "place": "",
      "links": [],
      "avatar_image": "image/avatar/normal.png",
      "permalink": "./posts/feed_20260505_194720/index.html",
      "legacy_id": "fixed-event-20260505_194720",
      "image": "image/feed_20260505_194720.png",
      "image_url": "image/feed_20260505_194720.png",
      "avatar_url": "image/avatar/normal.png",
      "image_prompt": "cinematic illustration, based on this short story: うんこをこまめに掃除すると部屋が綺麗になる。 英訳: One must clean the toilet frequently for the room to be tidy., plain illustration only, no readable text, no letters, no captions, no speech bubbles, no signs, no posters, no labels, no handwriting",
      "image_negative": "photorealistic, text, watermark, logo, low quality, blurry, underexposed, too dark, text, letters, words, captions, speech bubbles, dialogue balloons, signs, posters, labels, handwriting, watermark, logo",
      "image_model": "stabilityai/sdxl-turbo",
      "image_generated_at": "2026-05-05T10:52:03Z"
    },
    {
      "id": "feed_20260505_170945",
      "kind": "event",
      "date": "2026-05-05",
      "created_at": "2026-05-05T08:09:45Z",
      "text": "うんこが落ちてきた。\n英訳: A poop fell down.",
      "tweet": "うんこが落ちてきた。\n英訳: A poop fell down.",
      "place": "",
      "links": [],
      "avatar_image": "image/avatar/normal.png",
      "permalink": "./posts/feed_20260505_170945/index.html",
      "legacy_id": "fixed-event-20260505_170945",
      "image": "image/feed_20260505_170945.png",
      "image_url": "image/feed_20260505_170945.png",
      "avatar_url": "image/avatar/normal.png",
      "image_prompt": "cinematic illustration, based on this short story: うんこが落ちてきた。 英訳: A poop fell down., plain illustration only, no readable text, no letters, no captions, no speech bubbles, no signs, no posters, no labels, no handwriting",
      "image_negative": "photorealistic, text, watermark, logo, low quality, blurry, underexposed, too dark, text, letters, words, captions, speech bubbles, dialogue balloons, signs, posters, labels, handwriting, watermark, logo",
      "image_model": "stabilityai/sdxl-turbo",
      "image_generated_at": "2026-05-05T08:14:21Z"
    },
    {
      "id": "feed_20260505_144427",
      "kind": "event",
      "date": "2026-05-05",
      "created_at": "2026-05-05T05:44:27Z",
      "text": "うんこをかくのはNGです。\n英訳: One must not defecate.",
      "tweet": "うんこをかくのはNGです。\n英訳: One must not defecate.",
      "place": "",
      "links": [],
      "avatar_image": "image/avatar/normal.png",
      "permalink": "./posts/feed_20260505_144427/index.html",
      "legacy_id": "fixed-event-20260505_144427",
      "image": "image/feed_20260505_144427.png",
      "image_url": "image/feed_20260505_144427.png",
      "avatar_url": "image/avatar/normal.png",
      "image_prompt": "cinematic illustration, based on this short story: うんこをかくのはNGです。 英訳: One must not defecate., plain illustration only, no readable text, no letters, no captions, no speech bubbles, no signs, no posters, no labels, no handwriting",
      "image_negative": "photorealistic, text, watermark, logo, low quality, blurry, underexposed, too dark, text, letters, words, captions, speech bubbles, dialogue balloons, signs, posters, labels, handwriting, watermark, logo",
      "image_model": "stabilityai/sdxl-turbo",
      "image_generated_at": "2026-05-05T05:48:59Z"
    },
    {
      "id": "feed_20260505_114142",
      "kind": "event",
      "date": "2026-05-05",
      "created_at": "2026-05-05T02:41:42Z",
      "text": "うんこを拾うと、地面が汚くなる。\n英訳: One must pick up poop to make the ground dirty.",
      "tweet": "うんこを拾うと、地面が汚くなる。\n英訳: One must pick up poop to make the ground dirty.",
      "place": "",
      "links": [],
      "avatar_image": "image/avatar/normal.png",
      "permalink": "./posts/feed_20260505_114142/index.html",
      "legacy_id": "fixed-event-20260505_114142",
      "image": "image/feed_20260505_114142.png",
      "image_url": "image/feed_20260505_114142.png",
      "avatar_url": "image/avatar/normal.png",
      "image_prompt": "cinematic illustration, based on this short story: うんこを拾うと、地面が汚くなる。 英訳: One must pick up poop to make the ground dirty., plain illustration only, no readable text, no letters, no captions, no speech bubbles, no signs, no posters, no labels, no handwriting",
      "image_negative": "photorealistic, text, watermark, logo, low quality, blurry, underexposed, too dark, text, letters, words, captions, speech bubbles, dialogue balloons, signs, posters, labels, handwriting, watermark, logo",
      "image_model": "stabilityai/sdxl-turbo",
      "image_generated_at": "2026-05-05T02:46:28Z"
    },
    {
      "id": "feed_20260505_080525",
      "kind": "event",
      "date": "2026-05-05",
      "created_at": "2026-05-04T23:05:25Z",
      "text": "うんこが汚いね。\n英訳: Nothing is more disgusting than poop.",
      "tweet": "うんこが汚いね。\n英訳: Nothing is more disgusting than poop.",
      "place": "",
      "links": [],
      "avatar_image": "image/avatar/normal.png",
      "permalink": "./posts/feed_20260505_080525/index.html",
      "legacy_id": "fixed-event-20260505_080525",
      "image": "image/feed_20260505_080525.png",
      "image_url": "image/feed_20260505_080525.png",
      "avatar_url": "image/avatar/normal.png",
      "image_prompt": "cinematic illustration, based on this short story: うんこが汚いね。 英訳: Nothing is more disgusting than poop., plain illustration only, no readable text, no letters, no captions, no speech bubbles, no signs, no posters, no labels, no handwriting",
      "image_negative": "photorealistic, text, watermark, logo, low quality, blurry, underexposed, too dark, text, letters, words, captions, speech bubbles, dialogue balloons, signs, posters, labels, handwriting, watermark, logo",
      "image_model": "stabilityai/sdxl-turbo",
      "image_generated_at": "2026-05-04T23:09:55Z"
    },
    {
      "id": "feed_20260505_070340",
      "kind": "event",
      "date": "2026-05-05",
      "created_at": "2026-05-04T22:03:40Z",
      "text": "うんこが食べたい。\n英訳: I want to eat poop.",
      "tweet": "うんこが食べたい。\n英訳: I want to eat poop.",
      "place": "",
      "links": [],
      "avatar_image": "image/avatar/normal.png",
      "permalink": "./posts/feed_20260505_070340/index.html",
      "legacy_id": "fixed-event-20260505_070340",
      "image": "image/feed_20260505_070340.png",
      "image_url": "image/feed_20260505_070340.png",
      "avatar_url": "image/avatar/normal.png",
      "image_prompt": "cinematic illustration, based on this short story: うんこが食べたい。 英訳: I want to eat poop., plain illustration only, no readable text, no letters, no captions, no speech bubbles, no signs, no posters, no labels, no handwriting",
      "image_negative": "photorealistic, text, watermark, logo, low quality, blurry, underexposed, too dark, text, letters, words, captions, speech bubbles, dialogue balloons, signs, posters, labels, handwriting, watermark, logo",
      "image_model": "stabilityai/sdxl-turbo",
      "image_generated_at": "2026-05-04T22:08:12Z"
    },
    {
      "id": "feed_20260505_051559",
      "kind": "event",
      "date": "2026-05-05",
      "created_at": "2026-05-04T20:15:59Z",
      "text": "うんこが落ちました。\n英訳: A piece of poop fell.\n日本語の例文\n英訳",
      "tweet": "うんこが落ちました。\n英訳: A piece of poop fell.\n日本語の例文\n英訳",
      "place": "",
      "links": [],
      "avatar_image": "image/avatar/normal.png",
      "permalink": "./posts/feed_20260505_051559/index.html",
      "legacy_id": "fixed-event-20260505_051559",
      "image": "image/feed_20260505_051559.png",
      "image_url": "image/feed_20260505_051559.png",
      "avatar_url": "image/avatar/normal.png",
      "image_prompt": "cinematic illustration, based on this short story: うんこが落ちました。 英訳: A piece of poop fell. 日本語の例文 英訳, plain illustration only, no readable text, no letters, no captions, no speech bubbles, no signs, no posters, no labels, no handwriting",
      "image_negative": "photorealistic, text, watermark, logo, low quality, blurry, underexposed, too dark, text, letters, words, captions, speech bubbles, dialogue balloons, signs, posters, labels, handwriting, watermark, logo",
      "image_model": "stabilityai/sdxl-turbo",
      "image_generated_at": "2026-05-04T20:20:44Z"
    },
    {
      "id": "feed_20260505_031533",
      "kind": "event",
      "date": "2026-05-05",
      "created_at": "2026-05-04T18:15:33Z",
      "text": "うんこが hungry で、食べたいです。\n英訳: The poop is hungry and wants to eat.",
      "tweet": "うんこが hungry で、食べたいです。\n英訳: The poop is hungry and wants to eat.",
      "place": "",
      "links": [],
      "avatar_image": "image/avatar/normal.png",
      "permalink": "./posts/feed_20260505_031533/index.html",
      "legacy_id": "fixed-event-20260505_031533",
      "image": "image/feed_20260505_031533.png",
      "image_url": "image/feed_20260505_031533.png",
      "avatar_url": "image/avatar/normal.png",
      "image_prompt": "cinematic illustration, based on this short story: うんこが hungry で、食べたいです。 英訳: The poop is hungry and wants to eat., plain illustration only, no readable text, no letters, no captions, no speech bubbles, no signs, no posters, no labels, no handwriting",
      "image_negative": "photorealistic, text, watermark, logo, low quality, blurry, underexposed, too dark, text, letters, words, captions, speech bubbles, dialogue balloons, signs, posters, labels, handwriting, watermark, logo",
      "image_model": "stabilityai/sdxl-turbo",
      "image_generated_at": "2026-05-04T18:20:09Z"
    },
    {
      "id": "feed_20260504_230033",
      "kind": "event",
      "date": "2026-05-04",
      "created_at": "2026-05-04T14:00:33Z",
      "text": "うんこが食べたい。\n英訳: I want to eat poop.",
      "tweet": "うんこが食べたい。\n英訳: I want to eat poop.",
      "place": "",
      "links": [],
      "avatar_image": "image/avatar/normal.png",
      "permalink": "./posts/feed_20260504_230033/index.html",
      "legacy_id": "fixed-event-20260504_230033",
      "image": "image/feed_20260504_230033.png",
      "image_url": "image/feed_20260504_230033.png",
      "avatar_url": "image/avatar/normal.png",
      "image_prompt": "cinematic illustration, based on this short story: うんこが食べたい。 英訳: I want to eat poop., plain illustration only, no readable text, no letters, no captions, no speech bubbles, no signs, no posters, no labels, no handwriting",
      "image_negative": "photorealistic, text, watermark, logo, low quality, blurry, underexposed, too dark, text, letters, words, captions, speech bubbles, dialogue balloons, signs, posters, labels, handwriting, watermark, logo",
      "image_model": "stabilityai/sdxl-turbo",
      "image_generated_at": "2026-05-04T14:05:08Z"
    },
    {
      "id": "feed_20260504_205019",
      "kind": "event",
      "date": "2026-05-04",
      "created_at": "2026-05-04T11:50:19Z",
      "text": "うんこが好きだ。\n英訳: I like poop.",
      "tweet": "うんこが好きだ。\n英訳: I like poop.",
      "place": "",
      "links": [],
      "avatar_image": "image/avatar/normal.png",
      "permalink": "./posts/feed_20260504_205019/index.html",
      "legacy_id": "fixed-event-20260504_205019",
      "image": "image/feed_20260504_205019.png",
      "image_url": "image/feed_20260504_205019.png",
      "avatar_url": "image/avatar/normal.png",
      "image_prompt": "cinematic illustration, based on this short story: うんこが好きだ。 英訳: I like poop., plain illustration only, no readable text, no letters, no captions, no speech bubbles, no signs, no posters, no labels, no handwriting",
      "image_negative": "photorealistic, text, watermark, logo, low quality, blurry, underexposed, too dark, text, letters, words, captions, speech bubbles, dialogue balloons, signs, posters, labels, handwriting, watermark, logo",
      "image_model": "stabilityai/sdxl-turbo",
      "image_generated_at": "2026-05-04T11:54:28Z"
    }
  ],
  "count": 20,
  "page": 5,
  "page_size": 20,
  "total_items": 312,
  "total_pages": 16,
  "next_feed_url": "./feed/page_006.json"
}
